0.0229993772560621+0.0229993772560621j
-0.132443716851623+0.00233959188499001j
-0.0134727232704659-0.0785247857537825j
0.142755292820517-0.0126511678538838j
0.0919975090242484+0j
0.142755292820517-0.0126511678538838j
-0.0134727232704659-0.0785247857537825j
-0.132443716851623+0.00233959188499001j
0.0459987545121242+0.0459987545121242j
0.00233959188499001-0.132443716851623j
-0.0785247857537825-0.0134727232704659j
-0.0126511678538838+0.142755292820517j
0+0.0919975090242484j
-0.0126511678538838+0.142755292820517j
-0.0785247857537825-0.0134727232704659j
0.00233959188499001-0.132443716851623j
0.0459987545121242+0.0459987545121242j
-0.132443716851623+0.00233959188499001j
-0.0134727232704659-0.0785247857537825j
0.142755292820517-0.0126511678538838j
0.0919975090242484+0j
0.142755292820517-0.0126511678538838j
-0.0134727232704659-0.0785247857537825j
-0.132443716851623+0.00233959188499001j
0.0459987545121242+0.0459987545121242j
0.00233959188499001-0.132443716851623j
-0.0785247857537825-0.0134727232704659j
-0.0126511678538838+0.142755292820517j
0+0.0919975090242484j
-0.0126511678538838+0.142755292820517j
-0.0785247857537825-0.0134727232704659j
0.00233959188499001-0.132443716851623j
0.0459987545121242+0.0459987545121242j
-0.132443716851623+0.00233959188499001j
-0.0134727232704659-0.0785247857537825j
0.142755292820517-0.0126511678538838j
0.0919975090242484+0j
0.142755292820517-0.0126511678538838j
-0.0134727232704659-0.0785247857537825j
-0.132443716851623+0.00233959188499001j
0.0459987545121242+0.0459987545121242j
0.00233959188499001-0.132443716851623j
-0.0785247857537825-0.0134727232704659j
-0.0126511678538838+0.142755292820517j
0+0.0919975090242484j
-0.0126511678538838+0.142755292820517j
-0.0785247857537825-0.0134727232704659j
0.00233959188499001-0.132443716851623j
0.0459987545121242+0.0459987545121242j
-0.132443716851623+0.00233959188499001j
-0.0134727232704659-0.0785247857537825j
0.142755292820517-0.0126511678538838j
0.0919975090242484+0j
0.142755292820517-0.0126511678538838j
-0.0134727232704659-0.0785247857537825j
-0.132443716851623+0.00233959188499001j
0.0459987545121242+0.0459987545121242j
0.00233959188499001-0.132443716851623j
-0.0785247857537825-0.0134727232704659j
-0.0126511678538838+0.142755292820517j
0+0.0919975090242484j
-0.0126511678538838+0.142755292820517j
-0.0785247857537825-0.0134727232704659j
0.00233959188499001-0.132443716851623j
0.0459987545121242+0.0459987545121242j
-0.132443716851623+0.00233959188499001j
-0.0134727232704659-0.0785247857537825j
0.142755292820517-0.0126511678538838j
0.0919975090242484+0j
0.142755292820517-0.0126511678538838j
-0.0134727232704659-0.0785247857537825j
-0.132443716851623+0.00233959188499001j
0.0459987545121242+0.0459987545121242j
0.00233959188499001-0.132443716851623j
-0.0785247857537825-0.0134727232704659j
-0.0126511678538838+0.142755292820517j
0+0.0919975090242484j
-0.0126511678538838+0.142755292820517j
-0.0785247857537825-0.0134727232704659j
0.00233959188499001-0.132443716851623j
0.0459987545121242+0.0459987545121242j
-0.132443716851623+0.00233959188499001j
-0.0134727232704659-0.0785247857537825j
0.142755292820517-0.0126511678538838j
0.0919975090242484+0j
0.142755292820517-0.0126511678538838j
-0.0134727232704659-0.0785247857537825j
-0.132443716851623+0.00233959188499001j
0.0459987545121242+0.0459987545121242j
0.00233959188499001-0.132443716851623j
-0.0785247857537825-0.0134727232704659j
-0.0126511678538838+0.142755292820517j
0+0.0919975090242484j
-0.0126511678538838+0.142755292820517j
-0.0785247857537825-0.0134727232704659j
0.00233959188499001-0.132443716851623j
0.0459987545121242+0.0459987545121242j
-0.132443716851623+0.00233959188499001j
-0.0134727232704659-0.0785247857537825j
0.142755292820517-0.0126511678538838j
0.0919975090242484+0j
0.142755292820517-0.0126511678538838j
-0.0134727232704659-0.0785247857537825j
-0.132443716851623+0.00233959188499001j
0.0459987545121242+0.0459987545121242j
0.00233959188499001-0.132443716851623j
-0.0785247857537825-0.0134727232704659j
-0.0126511678538838+0.142755292820517j
0+0.0919975090242484j
-0.0126511678538838+0.142755292820517j
-0.0785247857537825-0.0134727232704659j
0.00233959188499001-0.132443716851623j
0.0459987545121242+0.0459987545121242j
-0.132443716851623+0.00233959188499001j
-0.0134727232704659-0.0785247857537825j
0.142755292820517-0.0126511678538838j
0.0919975090242484+0j
0.142755292820517-0.0126511678538838j
-0.0134727232704659-0.0785247857537825j
-0.132443716851623+0.00233959188499001j
0.0459987545121242+0.0459987545121242j
0.00233959188499001-0.132443716851623j
-0.0785247857537825-0.0134727232704659j
-0.0126511678538838+0.142755292820517j
0+0.0919975090242484j
-0.0126511678538838+0.142755292820517j
-0.0785247857537825-0.0134727232704659j
0.00233959188499001-0.132443716851623j
0.0459987545121242+0.0459987545121242j
-0.132443716851623+0.00233959188499001j
-0.0134727232704659-0.0785247857537825j
0.142755292820517-0.0126511678538838j
0.0919975090242484+0j
0.142755292820517-0.0126511678538838j
-0.0134727232704659-0.0785247857537825j
-0.132443716851623+0.00233959188499001j
0.0459987545121242+0.0459987545121242j
0.00233959188499001-0.132443716851623j
-0.0785247857537825-0.0134727232704659j
-0.0126511678538838+0.142755292820517j
0+0.0919975090242484j
-0.0126511678538838+0.142755292820517j
-0.0785247857537825-0.0134727232704659j
0.00233959188499001-0.132443716851623j
0.0459987545121242+0.0459987545121242j
-0.132443716851623+0.00233959188499001j
-0.0134727232704659-0.0785247857537825j
0.142755292820517-0.0126511678538838j
0.0919975090242484+0j
0.142755292820517-0.0126511678538838j
-0.0134727232704659-0.0785247857537825j
-0.132443716851623+0.00233959188499001j
0.0459987545121242+0.0459987545121242j
0.00233959188499001-0.132443716851623j
-0.0785247857537825-0.0134727232704659j
-0.0126511678538838+0.142755292820517j
0+0.0919975090242484j
-0.0126511678538838+0.142755292820517j
-0.0785247857537825-0.0134727232704659j
0.00233959188499001-0.132443716851623j
-0.0551256227439379+0.0229993772560621j
0.0122845904585672-0.097599553592072j
0.0917165491224096-0.105871659818631j
-0.09188755526278-0.115128708910969j
-0.00280594417348867-0.053774266476546j
0.075073697068226+0.0740404189250994j
-0.12732435990771+0.0205013799863003j
-0.121887009060741+0.0165662181391372j
-0.0350412607362388+0.150888347648318j
-0.056455128448539+0.0218039206074371j
-0.0603101003162138-0.0812861241157214j
0.0695568474068942-0.0141219585905783j
0.0822183223030573-0.0923565519537279j
-0.131262608975359-0.0652272290181446j
-0.0572063458714992-0.0392985881741111j
0.0369179420010671-0.0983441502870872j
0.0625+0.0625j
0.119239088510333+0.00409559441480153j
-0.022483206307774-0.160657332952634j
0.0586687671287373+0.0149389994506994j
0.0244758515211019+0.0585317956945906j
-0.13680487681586+0.0473798113656801j
0.000988979708988091+0.11500464362403j
0.0533377343741513-0.00407632648050834j
0.0975412607362388+0.0258883476483184j
-0.0383159674744185+0.106170912615103j
-0.115131214781702+0.0551804953743703j
0.0598238448590142+0.0877067598357217j
0.0211117703493294-0.0278859188282275j
0.0968318845911275-0.0827979094877607j
0.0397496983535005+0.111157943051164j
-0.00512125036041984+0.120325132673728j
0.15625+0j
-0.00512125036041982-0.120325132673728j
0.0397496983535005-0.111157943051164j
0.0968318845911275+0.0827979094877607j
0.0211117703493294+0.0278859188282275j
0.0598238448590142-0.0877067598357217j
-0.115131214781702-0.0551804953743704j
-0.0383159674744185-0.106170912615103j
0.0975412607362388-0.0258883476483184j
0.0533377343741513+0.00407632648050835j
0.000988979708988105-0.11500464362403j
-0.13680487681586-0.0473798113656801j
0.0244758515211019-0.0585317956945906j
0.0586687671287373-0.0149389994506995j
-0.022483206307774+0.160657332952634j
0.119239088510333-0.00409559441480152j
0.0625-0.0625j
0.0369179420010671+0.0983441502870872j
-0.0572063458714992+0.0392985881741111j
-0.131262608975359+0.0652272290181447j
0.0822183223030573+0.0923565519537279j
0.0695568474068941+0.0141219585905783j
-0.0603101003162138+0.0812861241157214j
-0.056455128448539-0.0218039206074371j
-0.0350412607362388-0.150888347648318j
-0.121887009060741-0.0165662181391372j
-0.12732435990771-0.0205013799863003j
0.075073697068226-0.0740404189250995j
-0.00280594417348867+0.053774266476546j
-0.09188755526278+0.115128708910969j
0.0917165491224096+0.105871659818631j
0.0122845904585672+0.097599553592072j
-0.15625+0j
0.0122845904585672-0.097599553592072j
0.0917165491224096-0.105871659818631j
-0.09188755526278-0.115128708910969j
-0.00280594417348867-0.053774266476546j
0.075073697068226+0.0740404189250994j
-0.12732435990771+0.0205013799863003j
-0.121887009060741+0.0165662181391372j
-0.0350412607362388+0.150888347648318j
-0.056455128448539+0.0218039206074371j
-0.0603101003162138-0.0812861241157214j
0.0695568474068942-0.0141219585905783j
0.0822183223030573-0.0923565519537279j
-0.131262608975359-0.0652272290181446j
-0.0572063458714992-0.0392985881741111j
0.0369179420010671-0.0983441502870872j
0.0625+0.0625j
0.119239088510333+0.00409559441480153j
-0.022483206307774-0.160657332952634j
0.0586687671287373+0.0149389994506994j
0.0244758515211019+0.0585317956945906j
-0.13680487681586+0.0473798113656801j
0.000988979708988091+0.11500464362403j
0.0533377343741513-0.00407632648050834j
0.0975412607362388+0.0258883476483184j
-0.0383159674744185+0.106170912615103j
-0.115131214781702+0.0551804953743703j
0.0598238448590142+0.0877067598357217j
0.0211117703493294-0.0278859188282275j
0.0968318845911275-0.0827979094877607j
0.0397496983535005+0.111157943051164j
-0.00512125036041984+0.120325132673728j
0.15625+0j
-0.00512125036041982-0.120325132673728j
0.0397496983535005-0.111157943051164j
0.0968318845911275+0.0827979094877607j
0.0211117703493294+0.0278859188282275j
0.0598238448590142-0.0877067598357217j
-0.115131214781702-0.0551804953743704j
-0.0383159674744185-0.106170912615103j
0.0975412607362388-0.0258883476483184j
0.0533377343741513+0.00407632648050835j
0.000988979708988105-0.11500464362403j
-0.13680487681586-0.0473798113656801j
0.0244758515211019-0.0585317956945906j
0.0586687671287373-0.0149389994506995j
-0.022483206307774+0.160657332952634j
0.119239088510333-0.00409559441480152j
0.0625-0.0625j
0.0369179420010671+0.0983441502870872j
-0.0572063458714992+0.0392985881741111j
-0.131262608975359+0.0652272290181447j
0.0822183223030573+0.0923565519537279j
0.0695568474068941+0.0141219585905783j
-0.0603101003162138+0.0812861241157214j
-0.056455128448539-0.0218039206074371j
-0.0350412607362388-0.150888347648318j
-0.121887009060741-0.0165662181391372j
-0.12732435990771-0.0205013799863003j
0.075073697068226-0.0740404189250995j
-0.00280594417348867+0.053774266476546j
-0.09188755526278+0.115128708910969j
0.0917165491224096+0.105871659818631j
0.0122845904585672+0.097599553592072j
-0.15625+0j
0.0122845904585672-0.097599553592072j
0.0917165491224096-0.105871659818631j
-0.09188755526278-0.115128708910969j
-0.00280594417348867-0.053774266476546j
0.075073697068226+0.0740404189250994j
-0.12732435990771+0.0205013799863003j
-0.121887009060741+0.0165662181391372j
-0.0350412607362388+0.150888347648318j
-0.056455128448539+0.0218039206074371j
-0.0603101003162138-0.0812861241157214j
0.0695568474068942-0.0141219585905783j
0.0822183223030573-0.0923565519537279j
-0.131262608975359-0.0652272290181446j
-0.0572063458714992-0.0392985881741111j
0.0369179420010671-0.0983441502870872j
0.0625+0.0625j
0.119239088510333+0.00409559441480153j
-0.022483206307774-0.160657332952634j
0.0586687671287373+0.0149389994506994j
0.0244758515211019+0.0585317956945906j
-0.13680487681586+0.0473798113656801j
0.000988979708988091+0.11500464362403j
0.0533377343741513-0.00407632648050834j
0.0975412607362388+0.0258883476483184j
-0.0383159674744185+0.106170912615103j
-0.115131214781702+0.0551804953743703j
0.0598238448590142+0.0877067598357217j
0.0211117703493294-0.0278859188282275j
0.0968318845911275-0.0827979094877607j
0.0397496983535005+0.111157943051164j
-0.00512125036041984+0.120325132673728j
0.109375+0j
0.0330337590385986-0.0438526984934968j
-0.00196556570037249-0.0376270119492721j
-0.0809046591096304+0.0844305239958156j
0.0067741484788981-0.100151213259612j
-0.00124632474550695-0.113302503192439j
-0.0211465632887092-0.00464019854797011j
0.135693094465218-0.104690379288083j
0.0975412607362388-0.0441941738241592j
0.0112074823317773-0.00183258263395614j
-0.0327044554879384+0.0440799783937185j
-0.0604833061842335+0.124226874544986j
0.0101382296506705+0.0966019303088419j
0.000441056586622662-0.0077695387979713j
0.0183600982477143-0.0825036872336925j
-0.0692837652605371+0.0267335186388505j
-0.21875+0j
-0.0692837652605371-0.0267335186388505j
0.0183600982477143+0.0825036872336925j
0.000441056586622673+0.00776953879797131j
0.0101382296506706-0.0966019303088419j
-0.0604833061842335-0.124226874544986j
-0.0327044554879384-0.0440799783937185j
0.0112074823317773+0.00183258263395613j
0.0975412607362388+0.0441941738241592j
0.135693094465218+0.104690379288083j
-0.0211465632887092+0.00464019854797013j
-0.00124632474550695+0.113302503192439j
0.00677414847889811+0.100151213259612j
-0.0809046591096304-0.0844305239958156j
-0.00196556570037249+0.037627011949272j
0.0330337590385986+0.0438526984934968j
0.0625+0j
0.0572128405372821+0.0524973349366313j
0.0155138626581687+0.173850788643227j
0.0354615702045115+0.115563758551697j
-0.0509683223030573-0.201625482037024j
0.0107812439328563+0.0359063806953301j
0.0892584516356865+0.208513487760199j
-0.0485137673520701-0.00788795869286976j
-0.0350412607362388+0.0441941738241592j
0.0170981321189861-0.0589690600503596j
0.0529809147892795-0.0169833844781261j
0.0987838160425204+0.100153698254542j
0.0340559441734887-0.148378625605479j
-0.00283339672713994-0.0940128739511533j
-0.120296742853829+0.0419507686310103j
-0.136447775879254-0.0698655774923529j
-0.03125+0j
-0.136447775879254+0.0698655774923529j
-0.120296742853829-0.0419507686310103j
-0.00283339672713994+0.0940128739511533j
0.0340559441734887+0.148378625605479j
0.0987838160425204-0.100153698254542j
0.0529809147892795+0.0169833844781261j
0.0170981321189861+0.0589690600503596j
-0.0350412607362388-0.0441941738241592j
-0.0485137673520702+0.00788795869286975j
0.0892584516356865-0.208513487760199j
0.0107812439328563-0.0359063806953301j
-0.0509683223030573+0.201625482037024j
0.0354615702045115-0.115563758551697j
0.0155138626581687-0.173850788643227j
0.0572128405372821-0.0524973349366313j
0.0625+0j
0.0330337590385986-0.0438526984934968j
-0.00196556570037249-0.0376270119492721j
-0.0809046591096304+0.0844305239958156j
0.0067741484788981-0.100151213259612j
-0.00124632474550695-0.113302503192439j
-0.0211465632887092-0.00464019854797011j
0.135693094465218-0.104690379288083j
0.0975412607362388-0.0441941738241592j
0.0112074823317773-0.00183258263395614j
-0.0327044554879384+0.0440799783937185j
-0.0604833061842335+0.124226874544986j
0.0101382296506705+0.0966019303088419j
0.000441056586622662-0.0077695387979713j
0.0183600982477143-0.0825036872336925j
-0.0692837652605371+0.0267335186388505j
-0.139021353064079+0.0502124119080917j
0.00409242446634805+0.013971112901197j
0.0109036663856425-0.100261732068962j
-0.0969928602573056-0.0203456739472709j
0.0621234831459866+0.0813799870537043j
0.123594562073123+0.138916804564934j
0.104256414716955-0.0150552340730516j
0.172935331201744-0.139791353970235j
-0.0395934230420938+0.00585376280666776j
-0.133488123486371+0.00892885247106574j
-0.00158768735869711-0.0432846616912015j
-0.0472770584716849+0.0921656164432163j
-0.109012558393771+0.0817054432108734j
-0.0239632903013386+0.0104072317778028j
0.0964961570336478+0.018548962818486j
0.0191099186884629-0.0225715117671804j
-0.0873354122563142-0.0494105884401309j
0.00234120535236814+0.0581253142390079j
-0.0210440601751621+0.22845735159546j
-0.102888848993094+0.0228244966390568j
-0.01925928978167-0.175154197728546j
0.0178245759521661+0.131773689729799j
-0.071019366784965+0.160380174631975j
-0.153190167664401-0.0619258091777236j
-0.107072743512946+0.0278858974287583j
0.0554350268188483+0.140017696270681j
0.0699110284999385+0.102683527483167j
-0.0555578978845482+0.024901606077179j
-0.0427566763296724+0.00162035236277239j
0.0156848402893242-0.118057878837786j
0.025543496312031-0.0712484457162842j
0.0332799139224417+0.177229100975639j
0.0197642353760524-0.0213678823119738j
0.0353311317052402-0.0884221402035232j
-0.00812378154172795+0.100697553654638j
-0.0349063889522165-0.00964245790392095j
0.0646485434530226+0.0304234118212851j
0.0924733960082135-0.0338842410134537j
0.0319433410960907-0.122534679327143j
-0.0175289103798187+0.0916916262354273j
6.4952289989078e-05-0.00585376280666776j
-0.00622473662681195-0.0561029195035257j
-0.0193280140215401+0.0397576519330235j
0.053200043850616-0.131378419138618j
0.0217690025468661-0.132811534996335j
0.104156618866233-0.0316999638134691j
0.162671057174092-0.0445115727516285j
-0.104859533478045-0.0295870152272855j
-0.110306941504209-0.0691748238161833j
-0.0077378920882788-0.0918838958374237j
-0.0492151451396045-0.0428284404539693j
0.0847025663973535-0.0172379446764111j
0.0901296169431845+0.0633507988535564j
0.0148800056408187+0.153375641702157j
0.048609415576201+0.093808745295241j
0.0111480498551009+0.0339775210810865j
-0.0115126687433683+0.0116425733233465j
-0.0152419508829033-0.0173804777082592j
-0.0605729481530587+0.0310065155646825j
-0.0701968375725286-0.0403441649974407j
0.0114148199202627-0.108628143585729j
0.0370699722298579-0.0599709437307839j
-0.00321580760300479-0.177501833886014j
-0.00720508627891484-0.128079499653937j
-0.0592927061281571+0.100424823816183j
0.00409242446634805+0.013971112901197j
0.0109036663856425-0.100261732068962j
-0.0969928602573056-0.0203456739472709j
0.0621234831459866+0.0813799870537043j
0.123594562073123+0.138916804564934j
0.104256414716955-0.0150552340730516j
0.172935331201744-0.139791353970235j
-0.0395934230420938+0.00585376280666776j
-0.133488123486371+0.00892885247106574j
-0.00158768735869711-0.0432846616912015j
-0.0472770584716849+0.0921656164432163j
-0.109012558393771+0.0817054432108734j
-0.0239632903013386+0.0104072317778028j
0.0964961570336478+0.018548962818486j
0.0191099186884629-0.0225715117671804j
-0.0584908826601964+0.015625j
-0.0963844576237688-0.0450346892491273j
-0.110200167004678+0.00288140397497103j
-0.0700094844329084+0.215747073783323j
-0.0396332302424835+0.0593958595879526j
0.00997516460322245-0.0555176720930547j
0.0337748658695885+0.0652693057257251j
0.116840000215436+0.0332285044470524j
0.0779987863495743-0.133198185306384j
-0.0427866287509649-0.146172528325136j
0.158107224954793-0.070502441552076j
0.253711551735186-0.0210638855283474j
0.0678160050830319+0.116981261943628j
-0.0441806756216374+0.114255303734822j
-0.0354926817996783+0.0410435679177948j
0.0845137432806309+0.0701878145577401j
0.120189059192236+0.00988211768802619j
0.0573283554136777+0.0546367957184468j
0.0632006241262833+0.187833527829949j
0.0906149450434918+0.149391136175992j
-0.0165716652801571-0.0393876520259312j
-0.0775449077474695-0.0749532341661293j
0.0494644105768034+0.0792623080430313j
-0.0139246795050608-0.00728016213218656j
0.0302837012547746-0.0273135015280513j
0.0801690475592022+0.0537302765227902j
-0.185944295789442-0.0667171972393896j
-0.0386776665032088-0.0274393503823509j
0.0430363724138192-0.0718034302890521j
-0.0919198943261552-0.0894210405475314j
0.0290079571603196+0.105391379997011j
-0.144236258878732+0.00338990048868663j
-0.0691748238161833-0.0411321176880262j
0.131827288065425+0.0566497294756303j
-0.126438971520504+0.069746520980111j
-0.0308446091673025+0.108688223252681j
0.160616446324814-0.00928297066713649j
0.055544374120051-0.0462640492729922j
-0.00366730021784231+0.0278458853913368j
-0.0492698404198088+0.000149140794919043j
-0.0779987863495743-0.00515146232598261j
0.0145183526573051-0.0870846340914612j
0.148908681105208-0.103996717205901j
-0.0212099248951432-0.0514881941657007j
-0.15406635806529-0.106396843774916j
0.0239500487769359+0.0303362384318533j
0.0463352249829402+0.12298308161065j
-0.0037720783565102-0.0983907635483326j
-0.0608963530640786-0.12846752994434j
-0.0236949270405063-0.0380530742195071j
0.0664307231759417-0.0484322760684099j
-0.0671133734679597+0.0266200906738563j
0.0537023322062455-0.0502537076469896j
0.170927508196747-0.0486925984401373j
-0.107522825947297+0.132272645823387j
-0.161486047821701-0.0194365990913713j
-0.0698121720068793-0.0715076753522105j
-0.176878729717864+0.04911594059744j
-0.172177702056021-0.0498697622234645j
0.0512336600003295-0.0746361124885497j
0.122270922072649-0.0573664001359735j
0.00915008143580017-0.0437585300927439j
-0.0118996506248342-0.0206695839794703j
0.0036300631732625+0.00856094917942697j
-0.0296463530640786+0.0806605884401309j
-0.0963844576237688-0.0450346892491273j
-0.110200167004678+0.00288140397497103j
-0.0700094844329084+0.215747073783323j
-0.0396332302424835+0.0593958595879526j
0.00997516460322245-0.0555176720930547j
0.0337748658695885+0.0652693057257251j
0.116840000215436+0.0332285044470524j
0.0779987863495743-0.133198185306384j
-0.0427866287509649-0.146172528325136j
0.158107224954793-0.070502441552076j
0.253711551735186-0.0210638855283474j
0.0678160050830319+0.116981261943628j
-0.0441806756216374+0.114255303734822j
-0.0354926817996783+0.0410435679177948j
0.0845137432806309+0.0701878145577401j
0.000801823467960719+0.0106839411559869j
-0.0994332771430137-0.047962056519714j
0.0536084117078532-0.196079413871455j
0.123994164251961+0.0345825224821378j
0.0919315114064428+0.044989504481639j
-0.0367859734282169-0.0658417990466776j
-0.0211002829011126-0.0038793279854101j
0.0424972870027377-0.064901064534545j
0.0611289562318613+0.0482766388171118j
0.0463064629228875+0.00417344220861215j
-0.062893082898153-0.045245704203283j
-0.101784437031351+0.152273916778054j
-0.0392474594826444-0.0187027401323788j
-0.00526793137232071-0.106066489378083j
0.0827078233513263+0.0305796122049034j
0.225663616159288+0.0276615364697126j
0.139953294568288-0.00988211768802619j
-0.132354325073329-0.0329092410046j
-0.11617935528186+0.0883308799079787j
0.0227295124972849+0.0518396496157903j
-0.171248519009309-0.0803886088266015j
-0.245747833248238-0.0245908443219766j
-0.0624397817692662-0.0379207148157657j
-0.0549764947918516-0.0622100251996526j
-0.00395256041297445-0.0598542598504692j
0.0338284690629187-1.12611706873413e-05j
-0.0302121714505182+0.0214910985419203j
0.0747573370717311-0.121647740819331j
0.0431700451329602-0.0796104586425314j
-0.0224231206252079+0.0414547840625034j
0.0263910812005633+0.0131129544560014j
-0.0309700601507583-0.0184544027183444j
0.0592927061281571+0.00827847075210476j
0.108934973912056+0.0779860826224918j
0.00206424690079192+0.101085065267532j
-0.0158528398333005+0.0540659348436417j
-0.0591850540356628+0.0702049010840128j
0.0168651642148308+0.114138475833124j
0.103643102913631-0.0339088149877852j
-0.02424147403448-0.0589004825891083j
-0.0808931916079137+0.05054453806315j
-0.040282247480874-0.0687858046382962j
-0.0685796795352422+0.0580919231304951j
-0.0672650263081843+0.117231287746888j
0.00650100211186437-0.131224528533345j
0.00858319713440792+0.0280095608044048j
0.0751770188282431+0.116767166006314j
0.117562691754842+0.0296694649526231j
-0.0411321176880262+0.148231765320393j
0.00497320971236645+0.0976093914270271j
0.0257738335731432+0.00186786104391218j
-0.11593368968768+0.0446468142428426j
-0.0196118213698904+0.0837796155172639j
0.100748651943545+0.00625551711190516j
0.205490165236019-0.0640453908047759j
0.0729341465248372-0.0633013115084528j
-0.173925557971497-0.118023858534002j
-0.0241854494839366+0.0258011465126612j
-0.040753027528643+0.128572173191319j
-0.0420396351395156-0.0534838877025507j
0.147690295246239-0.126218509460687j
-0.0299877370647134-0.049260904502695j
-0.0145844193383563-0.0207054840734816j
0.0891526677312772-0.0690722120597063j
-0.118585412256314+0.0114857646239476j
-0.0994332771430137-0.047962056519714j
0.0536084117078532-0.196079413871455j
0.123994164251961+0.0345825224821378j
0.0919315114064428+0.044989504481639j
-0.0367859734282169-0.0658417990466776j
-0.0211002829011126-0.0038793279854101j
0.0424972870027377-0.064901064534545j
0.0611289562318613+0.0482766388171118j
0.0463064629228875+0.00417344220861215j
-0.062893082898153-0.045245704203283j
-0.101784437031351+0.152273916778054j
-0.0392474594826444-0.0187027401323788j
-0.00526793137232071-0.106066489378083j
0.0827078233513263+0.0305796122049034j
0.225663616159288+0.0276615364697126j
0.0847998238161833-0.0650355884401309j
0.0340276933145899-0.142461222876416j
0.00366306567483143-0.0123123386917364j
0.125969911525378-0.0429728685426805j
0.0545228428432963+0.0680213148671251j
-0.0196313700510506+0.0772427088553366j
0.00787072209223518-0.0556209050295997j
-0.0343326753588944+0.0461655448345248j
-0.0396692175104778-0.133824691318685j
-0.0564980717838881-0.131124390941687j
0.0143079501733706+0.0966673684779749j
0.0448767620501734-0.00858708807746136j
-0.112613624265875-0.170490264059034j
-0.0652550283447585-0.229675743622401j
0.0651514500062389-0.0114664666092167j
0.0113510107019334+0.04757306722358j
-0.0905427061281571-0.0592927061281571j
-0.109871406476195+0.0244210340184999j
0.0738487208765927-0.0343457965996457j
0.124332856085491+0.0215447897897409j
-0.0371767302811778+0.0707534861171143j
0.0153653884720287+0.00152865920571404j
0.0280381796422962+0.0994030043989974j
-0.0620882209749091+0.0682245439261776j
0.0639475670218167+0.016232481927017j
0.0781643530345403+0.156022086753938j
0.00886140705538598+0.219154656616884j
0.146587698375292+0.0238821914560315j
0.105723806446405+0.0303760874916287j
-0.0804061396695687+0.142788390393886j
-0.0486840544300677-0.0996885986510826j
-0.036085072230609-0.0822708504568753j
-0.0889390591922357+0.0213678823119738j
-0.0700184340747463-0.0293555847673206j
-0.086298361194943+0.048320623799341j
-0.0657100878148339-0.0154747649468796j
-0.0241741892985327+0.0018558094297433j
-0.0304487184548542-0.0230261902843994j
-0.0317125243917577+0.0199535696900245j
-0.00206230721870939+0.211810880068649j
0.158254629766792-0.0242891916897338j
0.141452826243922-0.118608760085515j
-0.14611144936694+0.0575272107465127j
-0.155151858491617+0.0833329597449913j
-0.00158757843513056-0.0295498935275064j
0.018425000555374-0.12930489805348j
0.0121719878327389-0.0180522372678049j
-0.00830017810493533-0.0371899369679336j
0.03125+0.0395284707521047j
0.0234213847717388+0.0965821139905165j
0.0135821822955515-0.0392045535307715j
0.049885745322907+0.0189326766704541j
-0.0722288647677954-0.140630610413983j
-0.022846898739103-0.0508914017532167j
0.0237544723759737+0.0991738216010295j
-0.127134094055094-0.116192737871338j
0.0941663159866022+0.102352930329297j
0.182928452720017+0.0982142397745541j
-0.0399673985222683-0.019579404801721j
0.0646191695721784+0.0774559869142227j
0.0875343377588101-0.146563695921927j
-0.0388090315180468-0.0585788066248477j
-0.0565902331276575+0.124411694876072j
-0.0767586593837505+0.0199933722516345j
0.0296463530640786-0.120189059192236j
0.0340276933145899-0.142461222876416j
0.00366306567483143-0.0123123386917364j
0.125969911525378-0.0429728685426805j
0.0545228428432963+0.0680213148671251j
-0.0196313700510506+0.0772427088553366j
0.00787072209223518-0.0556209050295997j
-0.0343326753588944+0.0461655448345248j
-0.0396692175104778-0.133824691318685j
-0.0564980717838881-0.131124390941687j
0.0143079501733706+0.0966673684779749j
0.0448767620501734-0.00858708807746136j
-0.112613624265875-0.170490264059034j
-0.0652550283447585-0.229675743622401j
0.0651514500062389-0.0114664666092167j
0.0113510107019334+0.04757306722358j
-0.0255071176880262-0.0205660588440131j
-0.00163597822217553+0.041279519122465j
0.00138841805156466+0.0708434209118537j
-0.0373389239192954-0.116938810614511j
-0.105663634470987-0.0622999815620852j
0.00181489261458609+0.0568087217305833j
-0.00843121783766529-0.0109700956085846j
0.018788326352024+0.0721539252396576j
0.016232481927017+0.058731152405845j
-0.0652256506538034-0.076698146432781j
0.141542398996894-0.0617811113802768j
0.0869275394961695+0.0254590315710893j
-0.00262286062588683-0.102864727512811j
0.106661530716701-0.151682619187842j
-0.0544175663989586+0.0363490019387774j
-0.0296710770245277-0.00309545465849229j
0.0576890591922357-0.0197642353760524j
-0.027885072710301+0.00667209813010895j
-0.0273479930697773-0.0986786053866761j
0.0487899264438988-0.0752348467382641j
0.174449402219178+0.0308429343471113j
0.133943128250865+0.155554949377292j
0.0604381037429733+0.0766520080549533j
-0.0104720578393406-0.0218300672607157j
-0.0835818978178909+0.0400900244744168j
-0.0739459571811728+0.0110530940892235j
-0.163122358574631+0.0540938582256504j
-0.0520084802294861-0.00831897007486587j
0.0762527536433984-0.0419279248169571j
0.0425212657122179+0.100943733586049j
0.0576176493281782-0.0183251867255752j
0.00311136115336155-0.0899109573555578j
0.0592927061281571-0.0181605884401309j
0.023072615466774-0.0309361603700144j
0.00711971262757297-0.0172155692970276j
0.0660819691311968-0.0168970283463846j
-0.135309594829028-0.0982117052723501j
-0.0556543273406083-0.0807799753577555j
0.0885568005925808+0.154351215835511j
0.119511389916029+0.122335806848027j
0.102352930329297+0.000561553722312085j
-0.141041540345506+0.102103909270373j
0.00631041623556926-0.0114041948537753j
0.0566463009178072-0.0393582132089016j
-0.0590676493282866+0.0657340605867222j
0.131893187824203+0.111102255414295j
0.0119852547995917+0.113765614052186j
0.0468643737940678-0.10599620458791j
0.15971752994434-0.0988211768802619j
-0.0763920396480478+0.0844907330239702j
-0.0486394580802124+0.0730016034905974j
0.00507323967861049-0.0861391207523757j
-0.0520615851754774-0.107502072025305j
-0.0726497607221901+0.128766464957559j
-0.128986065464531-0.0339683955547136j
-0.152769582474696-0.11095028369495j
-0.193117397446842+0.0982596231579498j
-0.10731521427244-0.0684993206332005j
0.0036919223088102-0.00885940171034575j
-0.039212930577197+0.0243554342140903j
-0.0540907144413297-0.0790552912653734j
0.0237250375024791+0.0841623923049315j
0.0522939827420408-0.00162639597571684j
0.0277925081897963-0.0439758896051926j
0.0395284707521047+0.0181605884401309j
-0.00163597822217553+0.041279519122465j
0.00138841805156466+0.0708434209118537j
-0.0373389239192954-0.116938810614511j
-0.105663634470987-0.0622999815620852j
0.00181489261458609+0.0568087217305833j
-0.00843121783766529-0.0109700956085846j
0.018788326352024+0.0721539252396576j
0.016232481927017+0.058731152405845j
-0.0652256506538034-0.076698146432781j
0.141542398996894-0.0617811113802768j
0.0869275394961695+0.0254590315710893j
-0.00262286062588683-0.102864727512811j
0.106661530716701-0.151682619187842j
-0.0544175663989586+0.0363490019387774j
-0.0296710770245277-0.00309545465849229j
0.038726647284144-0.0897408826601964j
0.0290886237439878+0.0252547013808233j
0.0861483266411816-0.0288349551719132j
0.0867941733995096-0.0815142384090096j
0.00345816343457363-0.0359947042511631j
-0.0960365093395837-0.0885952620080251j
-0.0729432816981664-0.0459030672923172j
0.105487395660482-0.0196636537387299j
0.192620796014519+0.0180037797407321j
-0.0531458939045007-0.0731009926443284j
-0.11833888600267-0.148885084142858j
0.0191894677209302-0.0190929046629058j
-0.0417140964720973+0.0263755994746552j
0.0405524484132092+0.00882432667689161j
0.028454342975535-0.0764756715209499j
-0.0376039234593274-0.0684193206825588j
-0.0114857646239476+0.00988211768802619j
-0.133529413326333-0.0644879330041105j
0.0689293482042689-0.067172214054868j
0.0570356560521951+0.00630020793064157j
-0.134364381817782+0.0980106703625056j
0.152477336489654+0.0360762347892136j
0.0412594901137401-0.0845433574001434j
-0.0991110292819759-0.048583358601187j
0.0890040114822248-0.0994585250709579j
-0.0459865183431663+0.0181825426458939j
-0.112344192687301+0.135481026655528j
-0.0635738985753512+0.017850625821126j
-0.0222531455976962+0.053008138969002j
0.0410497698668223+0.0765494559564557j
-0.0211671954147767+0.144644236495391j
0.00665333001475236+0.178782127696682j
0.0592927061281571+0.0411321176880262j
0.0225525088543061+0.0644586854720028j
0.0616463202198794+0.0217484625756789j
0.110484515960731-0.0806779423226692j
-0.016028987332577-0.0536466554217577j
-0.0138699280677606-0.017477369342389j
0.171277292735028+0.00807661970968952j
0.0701664017581214-0.0267870510265829j
-0.0147426776300479+0.00176045563532025j
-0.0124264356793431+0.0529065629713679j
-0.125061231309063+0.00871967034552194j
-0.0397829884417721+0.0123833396617694j
0.0359252859554186+0.114371851983728j
0.00701688788702008+0.0898629184941787j
-0.0158080806914715-0.0822487710804759j
-0.00846143996156623-0.0129339361290389j
0.0905427061281571+0.0296463530640786j
0.0723211595523093-0.0683031944310215j
0.0512068810887864+0.0626810856177449j
-0.00423729954488059+0.0486362695713851j
-0.129764089548947-0.0478977814416895j
-0.120921846922125+0.0614277012006073j
-0.0952694227464645+0.0780457265786337j
0.0106693072145225+0.00456515033589047j
0.0493456361501419+0.000637348190696062j
-0.0138326718389647-0.0108120718281222j
0.00875649234070709-0.0627949333290445j
-0.0309509856296579+0.0402129429721678j
-0.0114865146377298+0.00388676333313885j
-0.0334234003939513-0.110766306329438j
-0.114860086777634+0.137461226014382j
-0.0246447998782939+0.04894174158302j
0.0197642353760524-0.15971752994434j
0.0290886237439878+0.0252547013808233j
0.0861483266411816-0.0288349551719132j
0.0867941733995096-0.0815142384090096j
0.00345816343457363-0.0359947042511631j
-0.0960365093395837-0.0885952620080251j
-0.0729432816981664-0.0459030672923172j
0.105487395660482-0.0196636537387299j
0.192620796014519+0.0180037797407321j
-0.0531458939045007-0.0731009926443284j
-0.11833888600267-0.148885084142858j
0.0191894677209302-0.0190929046629058j
-0.0417140964720973+0.0263755994746552j
0.0405524484132092+0.00882432667689161j
0.028454342975535-0.0764756715209499j
-0.0376039234593274-0.0684193206825588j
-0.00574288231197381+0.0049410588440131j
