0.0229993772560621+0.0229993772560621j
-0.132443716851623+0.00233959188499001j
-0.0134727232704659-0.0785247857537825j
0.142755292820517-0.0126511678538838j
0.0919975090242484+0j
0.142755292820517-0.0126511678538838j
-0.0134727232704659-0.0785247857537825j
-0.132443716851623+0.00233959188499001j
0.0459987545121242+0.0459987545121242j
0.00233959188499001-0.132443716851623j
-0.0785247857537825-0.0134727232704659j
-0.0126511678538838+0.142755292820517j
0+0.0919975090242484j
-0.0126511678538838+0.142755292820517j
-0.0785247857537825-0.0134727232704659j
0.00233959188499001-0.132443716851623j
0.0459987545121242+0.0459987545121242j
-0.132443716851623+0.00233959188499001j
-0.0134727232704659-0.0785247857537825j
0.142755292820517-0.0126511678538838j
0.0919975090242484+0j
0.142755292820517-0.0126511678538838j
-0.0134727232704659-0.0785247857537825j
-0.132443716851623+0.00233959188499001j
0.0459987545121242+0.0459987545121242j
0.00233959188499001-0.132443716851623j
-0.0785247857537825-0.0134727232704659j
-0.0126511678538838+0.142755292820517j
0+0.0919975090242484j
-0.0126511678538838+0.142755292820517j
-0.0785247857537825-0.0134727232704659j
0.00233959188499001-0.132443716851623j
0.0459987545121242+0.0459987545121242j
-0.132443716851623+0.00233959188499001j
-0.0134727232704659-0.0785247857537825j
0.142755292820517-0.0126511678538838j
0.0919975090242484+0j
0.142755292820517-0.0126511678538838j
-0.0134727232704659-0.0785247857537825j
-0.132443716851623+0.00233959188499001j
0.0459987545121242+0.0459987545121242j
0.00233959188499001-0.132443716851623j
-0.0785247857537825-0.0134727232704659j
-0.0126511678538838+0.142755292820517j
0+0.0919975090242484j
-0.0126511678538838+0.142755292820517j
-0.0785247857537825-0.0134727232704659j
0.00233959188499001-0.132443716851623j
0.0459987545121242+0.0459987545121242j
-0.132443716851623+0.00233959188499001j
-0.0134727232704659-0.0785247857537825j
0.142755292820517-0.0126511678538838j
0.0919975090242484+0j
0.142755292820517-0.0126511678538838j
-0.0134727232704659-0.0785247857537825j
-0.132443716851623+0.00233959188499001j
0.0459987545121242+0.0459987545121242j
0.00233959188499001-0.132443716851623j
-0.0785247857537825-0.0134727232704659j
-0.0126511678538838+0.142755292820517j
0+0.0919975090242484j
-0.0126511678538838+0.142755292820517j
-0.0785247857537825-0.0134727232704659j
0.00233959188499001-0.132443716851623j
0.0459987545121242+0.0459987545121242j
-0.132443716851623+0.00233959188499001j
-0.0134727232704659-0.0785247857537825j
0.142755292820517-0.0126511678538838j
0.0919975090242484+0j
0.142755292820517-0.0126511678538838j
-0.0134727232704659-0.0785247857537825j
-0.132443716851623+0.00233959188499001j
0.0459987545121242+0.0459987545121242j
0.00233959188499001-0.132443716851623j
-0.0785247857537825-0.0134727232704659j
-0.0126511678538838+0.142755292820517j
0+0.0919975090242484j
-0.0126511678538838+0.142755292820517j
-0.0785247857537825-0.0134727232704659j
0.00233959188499001-0.132443716851623j
0.0459987545121242+0.0459987545121242j
-0.132443716851623+0.00233959188499001j
-0.0134727232704659-0.0785247857537825j
0.142755292820517-0.0126511678538838j
0.0919975090242484+0j
0.142755292820517-0.0126511678538838j
-0.0134727232704659-0.0785247857537825j
-0.132443716851623+0.00233959188499001j
0.0459987545121242+0.0459987545121242j
0.00233959188499001-0.132443716851623j
-0.0785247857537825-0.0134727232704659j
-0.0126511678538838+0.142755292820517j
0+0.0919975090242484j
-0.0126511678538838+0.142755292820517j
-0.0785247857537825-0.0134727232704659j
0.00233959188499001-0.132443716851623j
0.0459987545121242+0.0459987545121242j
-0.132443716851623+0.00233959188499001j
-0.0134727232704659-0.0785247857537825j
0.142755292820517-0.0126511678538838j
0.0919975090242484+0j
0.142755292820517-0.0126511678538838j
-0.0134727232704659-0.0785247857537825j
-0.132443716851623+0.00233959188499001j
0.0459987545121242+0.0459987545121242j
0.00233959188499001-0.132443716851623j
-0.0785247857537825-0.0134727232704659j
-0.0126511678538838+0.142755292820517j
0+0.0919975090242484j
-0.0126511678538838+0.142755292820517j
-0.0785247857537825-0.0134727232704659j
0.00233959188499001-0.132443716851623j
0.0459987545121242+0.0459987545121242j
-0.132443716851623+0.00233959188499001j
-0.0134727232704659-0.0785247857537825j
0.142755292820517-0.0126511678538838j
0.0919975090242484+0j
0.142755292820517-0.0126511678538838j
-0.0134727232704659-0.0785247857537825j
-0.132443716851623+0.00233959188499001j
0.0459987545121242+0.0459987545121242j
0.00233959188499001-0.132443716851623j
-0.0785247857537825-0.0134727232704659j
-0.0126511678538838+0.142755292820517j
0+0.0919975090242484j
-0.0126511678538838+0.142755292820517j
-0.0785247857537825-0.0134727232704659j
0.00233959188499001-0.132443716851623j
0.0459987545121242+0.0459987545121242j
-0.132443716851623+0.00233959188499001j
-0.0134727232704659-0.0785247857537825j
0.142755292820517-0.0126511678538838j
0.0919975090242484+0j
0.142755292820517-0.0126511678538838j
-0.0134727232704659-0.0785247857537825j
-0.132443716851623+0.00233959188499001j
0.0459987545121242+0.0459987545121242j
0.00233959188499001-0.132443716851623j
-0.0785247857537825-0.0134727232704659j
-0.0126511678538838+0.142755292820517j
0+0.0919975090242484j
-0.0126511678538838+0.142755292820517j
-0.0785247857537825-0.0134727232704659j
0.00233959188499001-0.132443716851623j
0.0459987545121242+0.0459987545121242j
-0.132443716851623+0.00233959188499001j
-0.0134727232704659-0.0785247857537825j
0.142755292820517-0.0126511678538838j
0.0919975090242484+0j
0.142755292820517-0.0126511678538838j
-0.0134727232704659-0.0785247857537825j
-0.132443716851623+0.00233959188499001j
0.0459987545121242+0.0459987545121242j
0.00233959188499001-0.132443716851623j
-0.0785247857537825-0.0134727232704659j
-0.0126511678538838+0.142755292820517j
0+0.0919975090242484j
-0.0126511678538838+0.142755292820517j
-0.0785247857537825-0.0134727232704659j
0.00233959188499001-0.132443716851623j
-0.0551256227439379+0.0229993772560621j
0.0122845904585672-0.097599553592072j
0.0917165491224096-0.105871659818631j
-0.09188755526278-0.115128708910969j
-0.00280594417348867-0.053774266476546j
0.075073697068226+0.0740404189250994j
-0.12732435990771+0.0205013799863003j
-0.121887009060741+0.0165662181391372j
-0.0350412607362388+0.150888347648318j
-0.056455128448539+0.0218039206074371j
-0.0603101003162138-0.0812861241157214j
0.0695568474068942-0.0141219585905783j
0.0822183223030573-0.0923565519537279j
-0.131262608975359-0.0652272290181446j
-0.0572063458714992-0.0392985881741111j
0.0369179420010671-0.0983441502870872j
0.0625+0.0625j
0.119239088510333+0.00409559441480153j
-0.022483206307774-0.160657332952634j
0.0586687671287373+0.0149389994506994j
0.0244758515211019+0.0585317956945906j
-0.13680487681586+0.0473798113656801j
0.000988979708988091+0.11500464362403j
0.0533377343741513-0.00407632648050834j
0.0975412607362388+0.0258883476483184j
-0.0383159674744185+0.106170912615103j
-0.115131214781702+0.0551804953743703j
0.0598238448590142+0.0877067598357217j
0.0211117703493294-0.0278859188282275j
0.0968318845911275-0.0827979094877607j
0.0397496983535005+0.111157943051164j
-0.00512125036041984+0.120325132673728j
0.15625+0j
-0.00512125036041982-0.120325132673728j
0.0397496983535005-0.111157943051164j
0.0968318845911275+0.0827979094877607j
0.0211117703493294+0.0278859188282275j
0.0598238448590142-0.0877067598357217j
-0.115131214781702-0.0551804953743704j
-0.0383159674744185-0.106170912615103j
0.0975412607362388-0.0258883476483184j
0.0533377343741513+0.00407632648050835j
0.000988979708988105-0.11500464362403j
-0.13680487681586-0.0473798113656801j
0.0244758515211019-0.0585317956945906j
0.0586687671287373-0.0149389994506995j
-0.022483206307774+0.160657332952634j
0.119239088510333-0.00409559441480152j
0.0625-0.0625j
0.0369179420010671+0.0983441502870872j
-0.0572063458714992+0.0392985881741111j
-0.131262608975359+0.0652272290181447j
0.0822183223030573+0.0923565519537279j
0.0695568474068941+0.0141219585905783j
-0.0603101003162138+0.0812861241157214j
-0.056455128448539-0.0218039206074371j
-0.0350412607362388-0.150888347648318j
-0.121887009060741-0.0165662181391372j
-0.12732435990771-0.0205013799863003j
0.075073697068226-0.0740404189250995j
-0.00280594417348867+0.053774266476546j
-0.09188755526278+0.115128708910969j
0.0917165491224096+0.105871659818631j
0.0122845904585672+0.097599553592072j
-0.15625+0j
0.0122845904585672-0.097599553592072j
0.0917165491224096-0.105871659818631j
-0.09188755526278-0.115128708910969j
-0.00280594417348867-0.053774266476546j
0.075073697068226+0.0740404189250994j
-0.12732435990771+0.0205013799863003j
-0.121887009060741+0.0165662181391372j
-0.0350412607362388+0.150888347648318j
-0.056455128448539+0.0218039206074371j
-0.0603101003162138-0.0812861241157214j
0.0695568474068942-0.0141219585905783j
0.0822183223030573-0.0923565519537279j
-0.131262608975359-0.0652272290181446j
-0.0572063458714992-0.0392985881741111j
0.0369179420010671-0.0983441502870872j
0.0625+0.0625j
0.119239088510333+0.00409559441480153j
-0.022483206307774-0.160657332952634j
0.0586687671287373+0.0149389994506994j
0.0244758515211019+0.0585317956945906j
-0.13680487681586+0.0473798113656801j
0.000988979708988091+0.11500464362403j
0.0533377343741513-0.00407632648050834j
0.0975412607362388+0.0258883476483184j
-0.0383159674744185+0.106170912615103j
-0.115131214781702+0.0551804953743703j
0.0598238448590142+0.0877067598357217j
0.0211117703493294-0.0278859188282275j
0.0968318845911275-0.0827979094877607j
0.0397496983535005+0.111157943051164j
-0.00512125036041984+0.120325132673728j
0.15625+0j
-0.00512125036041982-0.120325132673728j
0.0397496983535005-0.111157943051164j
0.0968318845911275+0.0827979094877607j
0.0211117703493294+0.0278859188282275j
0.0598238448590142-0.0877067598357217j
-0.115131214781702-0.0551804953743704j
-0.0383159674744185-0.106170912615103j
0.0975412607362388-0.0258883476483184j
0.0533377343741513+0.00407632648050835j
0.000988979708988105-0.11500464362403j
-0.13680487681586-0.0473798113656801j
0.0244758515211019-0.0585317956945906j
0.0586687671287373-0.0149389994506995j
-0.022483206307774+0.160657332952634j
0.119239088510333-0.00409559441480152j
0.0625-0.0625j
0.0369179420010671+0.0983441502870872j
-0.0572063458714992+0.0392985881741111j
-0.131262608975359+0.0652272290181447j
0.0822183223030573+0.0923565519537279j
0.0695568474068941+0.0141219585905783j
-0.0603101003162138+0.0812861241157214j
-0.056455128448539-0.0218039206074371j
-0.0350412607362388-0.150888347648318j
-0.121887009060741-0.0165662181391372j
-0.12732435990771-0.0205013799863003j
0.075073697068226-0.0740404189250995j
-0.00280594417348867+0.053774266476546j
-0.09188755526278+0.115128708910969j
0.0917165491224096+0.105871659818631j
0.0122845904585672+0.097599553592072j
-0.15625+0j
0.0122845904585672-0.097599553592072j
0.0917165491224096-0.105871659818631j
-0.09188755526278-0.115128708910969j
-0.00280594417348867-0.053774266476546j
0.075073697068226+0.0740404189250994j
-0.12732435990771+0.0205013799863003j
-0.121887009060741+0.0165662181391372j
-0.0350412607362388+0.150888347648318j
-0.056455128448539+0.0218039206074371j
-0.0603101003162138-0.0812861241157214j
0.0695568474068942-0.0141219585905783j
0.0822183223030573-0.0923565519537279j
-0.131262608975359-0.0652272290181446j
-0.0572063458714992-0.0392985881741111j
0.0369179420010671-0.0983441502870872j
0.0625+0.0625j
0.119239088510333+0.00409559441480153j
-0.022483206307774-0.160657332952634j
0.0586687671287373+0.0149389994506994j
0.0244758515211019+0.0585317956945906j
-0.13680487681586+0.0473798113656801j
0.000988979708988091+0.11500464362403j
0.0533377343741513-0.00407632648050834j
0.0975412607362388+0.0258883476483184j
-0.0383159674744185+0.106170912615103j
-0.115131214781702+0.0551804953743703j
0.0598238448590142+0.0877067598357217j
0.0211117703493294-0.0278859188282275j
0.0968318845911275-0.0827979094877607j
0.0397496983535005+0.111157943051164j
-0.00512125036041984+0.120325132673728j
0.09375+0.046875j
-0.00549393365073611+0.064964596720374j
0.0503214890463565+0.137902981025948j
-0.000565742848455838+0.086981794152149j
0.0423735462134207-0.0127481821740442j
-0.0743951706884184+0.0261117784218717j
0.0365265049911756-0.0313753425186091j
0.13797026344331-0.0982203248465808j
-0.0183058261758408+0.0404029130879204j
-0.00512437508975182+0.0696204100103844j
-0.0631024454526523-0.0813304560756451j
-0.189316375890277-0.0693070619064372j
-0.124033731518194+0.0806748687420234j
0.014934940114924+0.103475461935847j
0.0629444417477545-0.0297272957064503j
0.0382058665914685-0.110489202292844j
0.03125+0j
0.0382058665914685+0.110489202292844j
0.0629444417477544+0.0297272957064503j
0.014934940114924-0.103475461935847j
-0.124033731518194-0.0806748687420234j
-0.189316375890277+0.0693070619064372j
-0.0631024454526523+0.0813304560756451j
-0.00512437508975185-0.0696204100103844j
-0.0183058261758408-0.0404029130879204j
0.13797026344331+0.0982203248465808j
0.0365265049911756+0.0313753425186091j
-0.0743951706884184-0.0261117784218717j
0.0423735462134207+0.0127481821740442j
-0.000565742848455843-0.086981794152149j
0.0503214890463565-0.137902981025948j
-0.00549393365073615-0.064964596720374j
0.03125-0.09375j
0.189006117583394-0.0673202859888223j
-0.0404144473100373+0.0217761343621219j
0.04580443127382-0.0694658071371489j
0.0902089752590569-0.138140165474274j
-0.0609302227009485-0.0569757720721401j
0.102876151095553+0.0277340872971321j
-0.0712135269281211+0.117849085880552j
-0.106694173824159+0.0845970869120796j
0.0474948213529249-0.0404765905403238j
-0.0763002106340766-0.0106991467941503j
-0.0154552966265398-0.038721502698195j
-0.00854878995428342-0.106563216390342j
-0.073629953227378+0.0868759541247892j
-0.0728514834840737+0.101018063446202j
0.0227081572907854-0.132351428539515j
0.15625+0j
0.0227081572907854+0.132351428539515j
-0.0728514834840737-0.101018063446202j
-0.073629953227378-0.0868759541247892j
-0.0085487899542834+0.106563216390342j
-0.0154552966265398+0.0387215026981949j
-0.0763002106340766+0.0106991467941503j
0.047494821352925+0.0404765905403238j
-0.106694173824159-0.0845970869120796j
-0.0712135269281211-0.117849085880552j
0.102876151095553-0.0277340872971321j
-0.0609302227009485+0.0569757720721401j
0.090208975259057+0.138140165474274j
0.04580443127382+0.0694658071371489j
-0.0404144473100373-0.0217761343621219j
0.189006117583394+0.0673202859888224j
0.03125+0.09375j
-0.00549393365073611+0.064964596720374j
0.0503214890463565+0.137902981025948j
-0.000565742848455838+0.086981794152149j
0.0423735462134207-0.0127481821740442j
-0.0743951706884184+0.0261117784218717j
0.0365265049911756-0.0313753425186091j
0.13797026344331-0.0982203248465808j
-0.0183058261758408+0.0404029130879204j
-0.00512437508975182+0.0696204100103844j
-0.0631024454526523-0.0813304560756451j
-0.189316375890277-0.0693070619064372j
-0.124033731518194+0.0806748687420234j
0.014934940114924+0.103475461935847j
0.0629444417477545-0.0297272957064503j
0.0382058665914685-0.110489202292844j
-0.046875+0j
-0.0757596701137665-0.0805610034567393j
-0.0124532223787404+0.0644905803983947j
-0.055787876395037+0.0430985537770168j
-0.20807268143199+0.0979684403007052j
-0.0605439871128701+0.131289243931291j
0.177460765736213+0.0031768200930232j
0.0159583677570324+0.0513628783572786j
-0.0792354345603981-0.0183058261758408j
0.0377742463824187-0.035855081355632j
0.0257190483772102+0.00030466842330126j
0.0543589143611732-0.0167980128803296j
0.0131753617385106+0.10272596951875j
-0.0853241744689804+0.00874772680828165j
0.0907176570281644-0.0863706416291634j
0.11108105651723+0.0591092331551148j
-0.03125+0j
0.11108105651723-0.0591092331551148j
0.0907176570281644+0.0863706416291634j
-0.0853241744689803-0.00874772680828165j
0.0131753617385106-0.10272596951875j
0.0543589143611732+0.0167980128803296j
0.0257190483772102-0.000304668423301277j
0.0377742463824187+0.035855081355632j
-0.0792354345603981+0.0183058261758408j
0.0159583677570324-0.0513628783572786j
0.177460765736213-0.00317682009302319j
-0.0605439871128701-0.131289243931291j
-0.20807268143199-0.0979684403007052j
-0.055787876395037-0.0430985537770168j
-0.0124532223787404-0.0644905803983947j
-0.0757596701137665+0.0805610034567393j
-0.125+0j
-0.0662804508603058+0.0592473558466692j
0.0510355078559223+0.0135283496849019j
0.0181830599102814-0.21956461184307j
0.0129901599595124+0.0163082549959317j
0.0433210369590014+0.0292036087831364j
-0.0572182949542574-0.0406428315736375j
0.0150054726323898+0.0478516553832621j
0.141735434560398-0.106694173824159j
-0.00108857425356625-0.157192021764375j
-0.0209615191591657-0.126159027552234j
0.126184406402243+0.0483495993437563j
0.0569071597339671+0.136550725777887j
-0.0403913796558111+0.0393983394679378j
-0.00429994250534632+0.0760012240641415j
-0.0366904480614321-0.019131127032459j
-0.09375+0j
-0.0366904480614321+0.019131127032459j
-0.00429994250534632-0.0760012240641415j
-0.0403913796558112-0.0393983394679378j
0.0569071597339671-0.136550725777887j
0.126184406402243-0.0483495993437563j
-0.0209615191591657+0.126159027552234j
-0.00108857425356625+0.157192021764375j
0.141735434560398+0.106694173824159j
0.0150054726323898-0.0478516553832621j
-0.0572182949542575+0.0406428315736375j
0.0433210369590014-0.0292036087831364j
0.0129901599595124-0.0163082549959317j
0.0181830599102814+0.21956461184307j
0.0510355078559223-0.0135283496849019j
-0.0662804508603059-0.0592473558466692j
-0.125+0j
-0.0757596701137665-0.0805610034567393j
-0.0124532223787404+0.0644905803983947j
-0.055787876395037+0.0430985537770168j
-0.20807268143199+0.0979684403007052j
-0.0605439871128701+0.131289243931291j
0.177460765736213+0.0031768200930232j
0.0159583677570324+0.0513628783572786j
-0.0792354345603981-0.0183058261758408j
0.0377742463824187-0.035855081355632j
0.0257190483772102+0.00030466842330126j
0.0543589143611732-0.0167980128803296j
0.0131753617385106+0.10272596951875j
-0.0853241744689804+0.00874772680828165j
0.0907176570281644-0.0863706416291634j
0.11108105651723+0.0591092331551148j
-0.015625+0.046875j
-0.03317621938781-0.0676911125120426j
-0.145228521397018-0.0847995453591837j
-0.0866749094615914+0.140565523879394j
0.118849022735683+0.0163542411312849j
0.170828216312974-0.0392322422656282j
0.0217172977618563-0.00165884219845776j
0.0355696871495677-0.178481011837757j
0-0.0350412607362388j
-0.176921535998452+0.0255425072101733j
-0.0481431974191851-0.117322268161947j
0.0227371698650961-0.0288302159689361j
-0.108941980999364+0.00419939221976078j
-0.0465521822419271-0.0780998141500938j
-0.0325831632495158-0.076316494760733j
-0.0223930915453134-0.0101077447382402j
0.0625+0j
-0.0223930915453134+0.0101077447382402j
-0.0325831632495158+0.076316494760733j
-0.0465521822419271+0.0780998141500938j
-0.108941980999364-0.00419939221976078j
0.0227371698650961+0.0288302159689362j
-0.0481431974191851+0.117322268161947j
-0.176921535998452-0.0255425072101733j
0+0.0350412607362388j
0.0355696871495677+0.178481011837757j
0.0217172977618563+0.00165884219845777j
0.170828216312974+0.0392322422656282j
0.118849022735683-0.0163542411312849j
-0.0866749094615915-0.140565523879394j
-0.145228521397018+0.0847995453591837j
-0.03317621938781+0.0676911125120426j
0-0.09375j
-0.0837506012871126-0.0913204438573976j
-0.0248200115560744+0.0234158193557513j
0.0177211964444657+0.0243949818738096j
-0.0304606750873649-0.123048414955444j
0.0329388361484266-0.0738468884181798j
0.100495806145599-0.0457142110184757j
0.109822642587996+0.0821657553876987j
0+0.0975412607362388j
-0.0775979765174747-0.131372822096321j
0.102706788808366-0.0184391327033048j
0.113592843579687-0.00708434376050815j
0.0205536333510457+0.01410643395608j
0.128962219946143+0.0702248908576615j
0.0258550009059709-0.0734555788910178j
-0.105106295594676+0.0915811299327108j
-0.0625+0j
-0.105106295594676-0.0915811299327108j
0.0258550009059709+0.0734555788910178j
0.128962219946143-0.0702248908576615j
0.0205536333510457-0.01410643395608j
0.113592843579687+0.00708434376050816j
0.102706788808366+0.0184391327033049j
-0.0775979765174747+0.131372822096321j
0-0.0975412607362388j
0.109822642587996-0.0821657553876987j
0.100495806145599+0.0457142110184757j
0.0329388361484266+0.0738468884181799j
-0.0304606750873649+0.123048414955444j
0.0177211964444657-0.0243949818738096j
-0.0248200115560744-0.0234158193557513j
-0.0837506012871126+0.0913204438573976j
0+0.09375j
-0.03317621938781-0.0676911125120426j
-0.145228521397018-0.0847995453591837j
-0.0866749094615914+0.140565523879394j
0.118849022735683+0.0163542411312849j
0.170828216312974-0.0392322422656282j
0.0217172977618563-0.00165884219845776j
0.0355696871495677-0.178481011837757j
0-0.0350412607362388j
-0.176921535998452+0.0255425072101733j
-0.0481431974191851-0.117322268161947j
0.0227371698650961-0.0288302159689361j
-0.108941980999364+0.00419939221976078j
-0.0465521822419271-0.0780998141500938j
-0.0325831632495158-0.076316494760733j
-0.0223930915453134-0.0101077447382402j
0.015625-0.015625j
0.0953373051463106-0.146899319490056j
-0.0721612588610683-0.0130241211300982j
-0.0343280888724572+0.0341003921089598j
0.0847470924268414-0.0509683223030573j
0.0533329236156371+0.0552286659800622j
0.132396487924686+0.0484941163295055j
0.0426595872914138-0.0558052456778684j
-0.0495558261758408+0.00915291308792039j
-0.102767377796035+0.0797451113323672j
0.0169323074120899+0.00684133403176304j
0.038784912536583-0.0583179050735112j
-0.248067463036388-0.0340559441734886j
0.00483491219016894-0.0810008971994633j
0.166820226057834-0.0699132222013694j
-0.0638090913067446+0.0654213745965401j
-0.09375+0j
-0.0638090913067445-0.0654213745965401j
0.166820226057834+0.0699132222013695j
0.00483491219016894+0.0810008971994633j
-0.248067463036388+0.0340559441734887j
0.038784912536583+0.0583179050735112j
0.0169323074120899-0.00684133403176304j
-0.102767377796035-0.0797451113323672j
-0.0495558261758408-0.00915291308792039j
0.0426595872914138+0.0558052456778684j
0.132396487924686-0.0484941163295056j
0.0533329236156371-0.0552286659800622j
0.0847470924268414+0.0509683223030573j
-0.0343280888724572-0.0341003921089598j
-0.0721612588610683+0.0130241211300982j
0.0953373051463106+0.146899319490056j
-0.03125+0.03125j
-0.0195915448587247+0.120847240175668j
0.00880689973213553+0.221654939560372j
0.0114475626583682+0.0155587644976626j
0.180417950518114+0.0067741484788981j
0.0955200056802107+0.00932661312366863j
0.00812244215861097-0.0465234832040052j
-0.0466114797434741+0.100897802806615j
-0.137944173824159+0.0533470869120796j
-0.0295045064458592-0.055391389333664j
0.055937110152932-0.0566473962028996j
0.0162354473797985-0.128835534080623j
-0.0170975799085668-0.0101382296506705j
-0.00905097989167231+0.055728030844857j
-0.0668542145772199-0.0232326546649936j
-0.0524895875835236+0.0645644062556655j
0.03125+0j
-0.0524895875835236-0.0645644062556655j
-0.0668542145772199+0.0232326546649936j
-0.00905097989167231-0.055728030844857j
-0.0170975799085668+0.0101382296506706j
0.0162354473797985+0.128835534080623j
0.055937110152932+0.0566473962028996j
-0.0295045064458592+0.055391389333664j
-0.137944173824159-0.0533470869120796j
-0.0466114797434741-0.100897802806615j
0.00812244215861099+0.0465234832040052j
0.0955200056802107-0.00932661312366863j
0.180417950518114-0.00677414847889812j
0.0114475626583682-0.0155587644976626j
0.00880689973213554-0.221654939560372j
-0.0195915448587247-0.120847240175668j
-0.03125-0.03125j
0.0953373051463106-0.146899319490056j
-0.0721612588610683-0.0130241211300982j
-0.0343280888724572+0.0341003921089598j
0.0847470924268414-0.0509683223030573j
0.0533329236156371+0.0552286659800622j
0.132396487924686+0.0484941163295055j
0.0426595872914138-0.0558052456778684j
-0.0495558261758408+0.00915291308792039j
-0.102767377796035+0.0797451113323672j
0.0169323074120899+0.00684133403176304j
0.038784912536583-0.0583179050735112j
-0.248067463036388-0.0340559441734886j
0.00483491219016894-0.0810008971994633j
0.166820226057834-0.0699132222013694j
-0.0638090913067446+0.0654213745965401j
-0.0625-0.015625j
-0.00597326853516528+0.0184346956527602j
0.0352808617013676+0.00642832049926063j
0.00626449436236885+0.00295817571889913j
-0.0143376218704313-0.00195158504455592j
0.113023801207893+0.0417647457182446j
-0.0152274735630969-0.0588886224270474j
-0.145706254527199-0.0177273920126066j
-0.0754441738241592+0.141735434560398j
-0.0922449598200452-0.114760493293296j
0.145625436179011-0.176741698599997j
0.151792346689725+0.0551573739477921j
-0.0720800926523868+0.11089356604392j
0.143494534928857-0.0369634200095104j
0.0206202557079203-0.16780083882385j
-0.163833790195362-0.0199595962612825j
-0.03125+0j
-0.163833790195362+0.0199595962612825j
0.0206202557079203+0.16780083882385j
0.143494534928857+0.0369634200095104j
-0.0720800926523868-0.11089356604392j
0.151792346689725-0.0551573739477921j
0.145625436179011+0.176741698599997j
-0.0922449598200452+0.114760493293296j
-0.0754441738241592-0.141735434560398j
-0.145706254527199+0.0177273920126066j
-0.0152274735630969+0.0588886224270474j
0.113023801207893-0.0417647457182446j
-0.0143376218704313+0.00195158504455592j
0.00626449436236884-0.00295817571889914j
0.0352808617013676-0.00642832049926065j
-0.00597326853516528-0.0184346956527602j
-0.03125+0.03125j
0.00427491121948105-0.0717892665067703j
0.0750545673442686-0.149472231807467j
0.00863162813473969-0.0463178511653858j
-0.0481623781295687-0.141354241131285j
-0.0737413884587685-0.0779818421178992j
-0.037757468000814-0.0223091870490234j
0.0745616180840646-0.154179392868048j
0.0129441738241592-0.0792354345603981j
-0.0133870990334572-0.00931086254172173j
0.0323595053848999+0.00715554147560822j
-0.0142980641422123+0.0241104712164641j
0.00958009265238677+0.120800607780239j
0.0183860378706713+0.109088686126935j
-0.0059556847535565-0.0636314201326745j
-0.0112445477855911+0.0144404544529086j
-0.03125+0j
-0.0112445477855911-0.0144404544529086j
-0.00595568475355649+0.0636314201326745j
0.0183860378706713-0.109088686126935j
0.00958009265238677-0.120800607780239j
-0.0142980641422123-0.0241104712164642j
0.0323595053848999-0.00715554147560822j
-0.0133870990334572+0.00931086254172172j
0.0129441738241592+0.0792354345603981j
0.0745616180840646+0.154179392868048j
-0.037757468000814+0.0223091870490234j
-0.0737413884587685+0.0779818421178992j
-0.0481623781295687+0.141354241131285j
0.00863162813473969+0.0463178511653858j
0.0750545673442686+0.149472231807467j
0.00427491121948104+0.0717892665067703j
-0.03125-0.03125j
-0.00597326853516528+0.0184346956527602j
0.0352808617013676+0.00642832049926063j
0.00626449436236885+0.00295817571889913j
-0.0143376218704313-0.00195158504455592j
0.113023801207893+0.0417647457182446j
-0.0152274735630969-0.0588886224270474j
-0.145706254527199-0.0177273920126066j
-0.0754441738241592+0.141735434560398j
-0.0922449598200452-0.114760493293296j
0.145625436179011-0.176741698599997j
0.151792346689725+0.0551573739477921j
-0.0720800926523868+0.11089356604392j
0.143494534928857-0.0369634200095104j
0.0206202557079203-0.16780083882385j
-0.163833790195362-0.0199595962612825j
-0.046875+0j
0.0158803616227785+0.0779329497836172j
-0.0492072798647221-0.048627853908519j
0.0169705748799114-0.104489779061562j
0.0653059441734887+0.0233135913891811j
-0.0604788255080094+0.10143718165807j
0.00948669259723533+0.00304595999925877j
-0.070707724346846+0.00213318647660339j
-0.0533470869120796+0.150888347648318j
-0.0117378845537263+0.0691303312653963j
0.0216651574430738-0.101949856509216j
0.206013856193663-0.0432370757907761j
0.0380241484788981+0.0379781623435449j
-0.0437938284945707+0.0747365098900936j
0.051230252876602+0.13155854506685j
0.0535793502118198+0.0957485207338288j
0.09375+0j
0.0535793502118198-0.0957485207338288j
0.051230252876602-0.13155854506685j
-0.0437938284945708-0.0747365098900936j
0.0380241484788981-0.0379781623435449j
0.206013856193663+0.0432370757907761j
0.0216651574430738+0.101949856509216j
-0.0117378845537263-0.0691303312653963j
-0.0533470869120796-0.150888347648318j
-0.070707724346846-0.00213318647660339j
0.00948669259723531-0.00304595999925877j
-0.0604788255080094-0.10143718165807j
0.0653059441734887-0.0233135913891811j
0.0169705748799114+0.104489779061562j
-0.0492072798647222+0.048627853908519j
0.0158803616227785-0.0779329497836172j
-0.0625+0j
0.128116092015926+0.0673051480969568j
0.025289565341904-0.0242415636565029j
-0.188842835393989+0.0604616442963902j
0.0413882296506706+0.0909631039074557j
0.0704705132225592-0.110923642771353j
0.0482557781847201-0.0664003191281915j
0.0323433295616439+0.0344217812084808j
-0.00915291308792039-0.0258883476483184j
0.0428197688959744+0.0518717178170057j
-0.0794076282250292+0.00198384502860192j
-0.0734240084287099-0.0641527914069144j
-0.0197183223030573+0.201298532953092j
-0.103692141767491+0.210108644556964j
-0.0273125383537839+0.00896038501644636j
-0.0135165981109334+0.0607133538406998j
-0.09375+0j
-0.0135165981109334-0.0607133538406998j
-0.0273125383537839-0.00896038501644636j
-0.103692141767491-0.210108644556964j
-0.0197183223030573-0.201298532953092j
-0.0734240084287099+0.0641527914069144j
-0.0794076282250292-0.00198384502860193j
0.0428197688959744-0.0518717178170057j
-0.00915291308792039+0.0258883476483184j
0.0323433295616439-0.0344217812084808j
0.0482557781847201+0.0664003191281915j
0.0704705132225592+0.110923642771353j
0.0413882296506705-0.0909631039074558j
-0.188842835393989-0.0604616442963902j
0.025289565341904+0.0242415636565029j
0.128116092015926-0.0673051480969568j
-0.0625+0j
0.0158803616227785+0.0779329497836172j
-0.0492072798647221-0.048627853908519j
0.0169705748799114-0.104489779061562j
0.0653059441734887+0.0233135913891811j
-0.0604788255080094+0.10143718165807j
0.00948669259723533+0.00304595999925877j
-0.070707724346846+0.00213318647660339j
-0.0533470869120796+0.150888347648318j
-0.0117378845537263+0.0691303312653963j
0.0216651574430738-0.101949856509216j
0.206013856193663-0.0432370757907761j
0.0380241484788981+0.0379781623435449j
-0.0437938284945707+0.0747365098900936j
0.051230252876602+0.13155854506685j
0.0535793502118198+0.0957485207338288j
0.109375-0.0625j
0.0386359540908541+0.0178745587173618j
0.0755672993935626+0.162840487530308j
-0.0206098996525683-0.0683912882222923j
-0.121227787344706+0.0539512100457166j
-0.0954242281988749+0.138845203533912j
-0.0408803144440738-0.127136081684019j
0.0893313312131802-0.068242432856246j
-0.0845970869120796+0.0571383476483184j
-0.0112302394463948+0.0701707911387859j
0.183008001485659+0.106079283030916j
0.0372003206423626-0.0549331663861642j
0.065733123737955-0.104873546213421j
-0.0126204461920543-0.00232855867095887j
-0.0355694216378401-0.00621488128971015j
-0.0218877076968378+0.0194782687364165j
-0.15625+0j
-0.0218877076968378-0.0194782687364165j
-0.0355694216378401+0.00621488128971015j
-0.0126204461920543+0.00232855867095885j
0.065733123737955+0.104873546213421j
0.0372003206423625+0.0549331663861642j
0.183008001485659-0.106079283030916j
-0.0112302394463948-0.0701707911387859j
-0.0845970869120796-0.0571383476483184j
0.0893313312131802+0.068242432856246j
-0.0408803144440738+0.127136081684019j
-0.0954242281988749-0.138845203533912j
-0.121227787344706-0.0539512100457166j
-0.0206098996525683+0.0683912882222923j
0.0755672993935626-0.162840487530308j
0.0386359540908541-0.0178745587173618j
0.125+0.125j
-0.0400236741759551-0.0545602308462143j
-0.0910862294768592+0.0199019832516476j
0.051776429973047+0.0511683380684236j
-0.0296605603036129-0.0615337315181942j
-0.00209194822598156-0.0131296494091206j
0.0659143029634595-0.0217816328387991j
0.0478523141037489-0.0737976881178264j
-0.0404029130879204-0.119638347648318j
-0.078117976824898-0.144561399594584j
0.0053463576432737-0.00499699755373419j
-0.0551690857814169+0.0173283499014086j
-0.0398447760896366-0.152708975259057j
0.0969388574354865-0.178214762092457j
0.0877000040728182-0.0610426479283344j
-0.0245600012636974+0.0114855716530056j
-0.09375+0j
-0.0245600012636974-0.0114855716530056j
0.0877000040728182+0.0610426479283344j
0.0969388574354865+0.178214762092457j
-0.0398447760896366+0.152708975259057j
-0.0551690857814169-0.0173283499014086j
0.00534635764327369+0.00499699755373418j
-0.078117976824898+0.144561399594584j
-0.0404029130879204+0.119638347648318j
0.0478523141037489+0.0737976881178263j
0.0659143029634595+0.0217816328387991j
-0.00209194822598156+0.0131296494091206j
-0.0296605603036128+0.0615337315181943j
0.051776429973047-0.0511683380684236j
-0.0910862294768591-0.0199019832516476j
-0.0400236741759551+0.0545602308462143j
0.125-0.125j
0.0386359540908541+0.0178745587173618j
0.0755672993935626+0.162840487530308j
-0.0206098996525683-0.0683912882222923j
-0.121227787344706+0.0539512100457166j
-0.0954242281988749+0.138845203533912j
-0.0408803144440738-0.127136081684019j
0.0893313312131802-0.068242432856246j
-0.0845970869120796+0.0571383476483184j
-0.0112302394463948+0.0701707911387859j
0.183008001485659+0.106079283030916j
0.0372003206423626-0.0549331663861642j
0.065733123737955-0.104873546213421j
-0.0126204461920543-0.00232855867095887j
-0.0355694216378401-0.00621488128971015j
-0.0218877076968378+0.0194782687364165j
-0.078125+0.046875j
0.00245117947421674-0.0636425035796594j
0.0474760020289486-0.0553690427790181j
0.0690822428449662+0.0726690086937024j
0.0150917505188302+0.018687019604954j
0.0246518813998549-0.10056947541259j
0.0329611190687583-0.0526706411870897j
0.0524887907373522+0.0587121958566075j
0.0754441738241592+0.0220970869120796j
0.0239117100098879-0.121780727186571j
-0.0312739975530808-0.246278977456705j
-0.0993980196188362-0.0532160251821503j
-0.120669650346422+0.093341868516478j
-0.00959262256361505-0.0353294162919053j
0.0403877826577233+0.0234250461849496j
-0.0255463118112232+0.0918521117259595j
-0.0625+0j
-0.0255463118112232-0.0918521117259595j
0.0403877826577233-0.0234250461849496j
-0.00959262256361505+0.0353294162919053j
-0.120669650346422-0.093341868516478j
-0.0993980196188362+0.0532160251821503j
-0.0312739975530808+0.246278977456705j
0.0239117100098879+0.121780727186571j
0.0754441738241592-0.0220970869120796j
0.0524887907373522-0.0587121958566075j
0.0329611190687583+0.0526706411870897j
0.0246518813998549+0.10056947541259j
0.0150917505188302-0.0186870196049539j
0.0690822428449662-0.0726690086937024j
0.0474760020289486+0.0553690427790181j
0.00245117947421673+0.0636425035796594j
0-0.09375j
-0.116176278404057+0.00114250357965939j
-0.0339277050711524-0.0019814447027073j
0.197049995015439-0.0101690086937024j
0.0291024233053291+0.158089675691683j
-0.105882259129239+0.0380694754125903j
0.035150769278219+0.0143502705775426j
-0.0386514473215707+0.0037878041433925j
-0.0129441738241592-0.0220970869120796j
0.173406746229514+0.0592807271865714j
0.0515504568544219-0.0420413931528425j
-0.00250605673396562+0.11571602518215j
0.0764754765222626+0.0834348267801588j
-0.0734051612146051-0.0271705837080947j
-0.142324427263838+0.169224466333325j
-0.0718843889141201-0.0293521117259595j
-0.0625+0j
-0.0718843889141201+0.0293521117259595j
-0.142324427263838-0.169224466333325j
-0.0734051612146051+0.0271705837080947j
0.0764754765222626-0.0834348267801588j
-0.00250605673396561-0.11571602518215j
0.0515504568544219+0.0420413931528425j
0.173406746229514-0.0592807271865714j
-0.0129441738241592+0.0220970869120796j
-0.0386514473215706-0.0037878041433925j
0.035150769278219-0.0143502705775426j
-0.105882259129239-0.0380694754125903j
0.0291024233053291-0.158089675691683j
0.197049995015439+0.0101690086937024j
-0.0339277050711524+0.00198144470270731j
-0.116176278404057-0.00114250357965938j
0+0.09375j
0.00245117947421674-0.0636425035796594j
0.0474760020289486-0.0553690427790181j
0.0690822428449662+0.0726690086937024j
0.0150917505188302+0.018687019604954j
0.0246518813998549-0.10056947541259j
0.0329611190687583-0.0526706411870897j
0.0524887907373522+0.0587121958566075j
0.0754441738241592+0.0220970869120796j
0.0239117100098879-0.121780727186571j
-0.0312739975530808-0.246278977456705j
-0.0993980196188362-0.0532160251821503j
-0.120669650346422+0.093341868516478j
-0.00959262256361505-0.0353294162919053j
0.0403877826577233+0.0234250461849496j
-0.0255463118112232+0.0918521117259595j
0.015625+0j
0.00707847480674845-0.026198993433255j
-0.0943277482752185+0.0521346327151646j
0.110071044849912-0.159717006909004j
-0.0322353165627502-0.0595630983926939j
-0.0344590827775012-0.00925476099828749j
0.175160203813987-0.0821593003266443j
-0.0789940449317711+0.0377718322879142j
-0.11584708691208-0.03125j
0.11756107550554-0.0408932155815142j
0.115234163593717-0.0103270710703515j
0.0920561304576666-0.0297656134701272j
0.0730654092151369+0.0559218431712169j
0.0880644239635553+0.106087106666204j
0.0731844845043539+0.0537946286100817j
-0.0894498435847615-0.0702710763180664j
-0.1875+0j
-0.0894498435847615+0.0702710763180664j
0.0731844845043538-0.0537946286100817j
0.0880644239635553-0.106087106666204j
0.0730654092151369-0.0559218431712169j
0.0920561304576666+0.0297656134701272j
0.115234163593717+0.0103270710703515j
0.11756107550554+0.0408932155815142j
-0.11584708691208+0.03125j
-0.0789940449317711-0.0377718322879142j
0.175160203813987+0.0821593003266443j
-0.0344590827775013+0.00925476099828749j
-0.0322353165627502+0.0595630983926939j
0.110071044849912+0.159717006909004j
-0.0943277482752185-0.0521346327151646j
0.00707847480674845+0.026198993433255j
0.09375+0j
-0.069241413769962-0.126210545105839j
-0.0574149585020326+0.0202724090211546j
-0.0672645911108538+0.0714674642648269j
-0.0561530310855683+0.103757272216853j
-0.0106949596696324-0.0454342006361955j
0.0537470739176278-0.119743355760085j
0.119118282351044+0.00928325740596016j
-0.0716529130879204-0.03125j
-0.130588719009221-0.000440042372929867j
0.0460236016196237-0.0665755850163775j
0.0893216886834217-0.113311695812674j
0.0153229384331815-0.0117276693470577j
-0.0903179590999313-0.105948301662063j
-0.061606820672058-0.106387586873762j
-0.0522605066642542+0.00624988542729051j
-0.125+0j
-0.0522605066642542-0.00624988542729052j
-0.061606820672058+0.106387586873762j
-0.0903179590999313+0.105948301662063j
0.0153229384331815+0.0117276693470577j
0.0893216886834217+0.113311695812674j
0.0460236016196237+0.0665755850163774j
-0.130588719009221+0.000440042372929876j
-0.0716529130879204+0.03125j
0.119118282351044-0.00928325740596018j
0.0537470739176278+0.119743355760085j
-0.0106949596696324+0.0454342006361955j
-0.0561530310855683-0.103757272216853j
-0.0672645911108538-0.0714674642648269j
-0.0574149585020327-0.0202724090211546j
-0.069241413769962+0.126210545105839j
0.09375+0j
0.00707847480674845-0.026198993433255j
-0.0943277482752185+0.0521346327151646j
0.110071044849912-0.159717006909004j
-0.0322353165627502-0.0595630983926939j
-0.0344590827775012-0.00925476099828749j
0.175160203813987-0.0821593003266443j
-0.0789940449317711+0.0377718322879142j
-0.11584708691208-0.03125j
0.11756107550554-0.0408932155815142j
0.115234163593717-0.0103270710703515j
0.0920561304576666-0.0297656134701272j
0.0730654092151369+0.0559218431712169j
0.0880644239635553+0.106087106666204j
0.0731844845043539+0.0537946286100817j
-0.0894498435847615-0.0702710763180664j
-0.09375+0j
-0.112979987566215+0.0460523958039652j
-0.109311253072412-0.0488411077419221j
0.0759173914869269-0.0834774160117815j
0.0782501179976479-0.0712907677397516j
-0.0352492056187783+0.0219819944403902j
-0.0710129102566021-0.00312574302698701j
-0.103229238010554+0.0229326615500196j
0.0716529130879204+0.0258883476483184j
0.108272759594693-0.0700557342840918j
0.0440852284781693+0.0124579722832798j
0.0558689666055754+0.0021270966870775j
-0.0374200253452611-0.003641255221477j
0.0746129889465116+0.116047279745968j
0.0271700466978495-0.015318888152995j
-0.0712400068890378-0.142711684333298j
0.03125+0j
-0.0712400068890378+0.142711684333298j
0.0271700466978495+0.015318888152995j
0.0746129889465116-0.116047279745968j
-0.0374200253452611+0.00364125522147701j
0.0558689666055754-0.0021270966870775j
0.0440852284781693-0.0124579722832798j
0.108272759594693+0.0700557342840918j
0.0716529130879204-0.0258883476483184j
-0.103229238010554-0.0229326615500195j
-0.0710129102566021+0.003125743026987j
-0.0352492056187783-0.0219819944403902j
0.0782501179976479+0.0712907677397516j
0.0759173914869269+0.0834774160117815j
-0.109311253072412+0.0488411077419221j
-0.112979987566215-0.0460523958039652j
0+0j
-0.0330120258599171+0.200316709916739j
-0.170610333097614+0.111341107741922j
-0.058501848055301+0.153328385941514j
0.0543324034748298+0.15967911538807j
-0.00485427074917937-0.16311753220938j
-0.019046059487693-0.059374256973013j
0.017894399509708+0.0311143949845481j
0.11584708691208-0.150888347648318j
0.00415867282174581-0.0184787446608438j
0.0093620889144442+0.0500420277167202j
0.120458286456337+0.0407965712835241j
-0.0951624961272165+0.0920296028697954j
-0.0514756137754553-0.0389137993732807j
0.0393631918238575-0.047181111847005j
0.0133587311029411+0.0697225592778619j
0.09375+0j
0.0133587311029411-0.0697225592778619j
0.0393631918238575+0.047181111847005j
-0.0514756137754553+0.0389137993732806j
-0.0951624961272166-0.0920296028697954j
0.120458286456337-0.0407965712835241j
0.00936208891444421-0.0500420277167202j
0.00415867282174581+0.0184787446608438j
0.11584708691208+0.150888347648318j
0.017894399509708-0.0311143949845481j
-0.019046059487693+0.059374256973013j
-0.00485427074917937+0.16311753220938j
0.0543324034748298-0.15967911538807j
-0.058501848055301-0.153328385941514j
-0.170610333097614-0.111341107741922j
-0.0330120258599172-0.200316709916739j
0+0j
-0.112979987566215+0.0460523958039652j
-0.109311253072412-0.0488411077419221j
0.0759173914869269-0.0834774160117815j
0.0782501179976479-0.0712907677397516j
-0.0352492056187783+0.0219819944403902j
-0.0710129102566021-0.00312574302698701j
-0.103229238010554+0.0229326615500196j
0.0716529130879204+0.0258883476483184j
0.108272759594693-0.0700557342840918j
0.0440852284781693+0.0124579722832798j
0.0558689666055754+0.0021270966870775j
-0.0374200253452611-0.003641255221477j
0.0746129889465116+0.116047279745968j
0.0271700466978495-0.015318888152995j
-0.0712400068890378-0.142711684333298j
-0.046875-0.015625j
0.0803659927323199+0.0561707445529891j
0.129102664529333-0.0449698996997442j
0.101971837076185-0.141023184619782j
0.0633543591289328+0.102494781604398j
-0.00698991982824743+0.154200916213549j
0.0192640632256356+0.00172722755558706j
-0.010866126531327-0.0754909281102065j
0.0441941738241592+0.00915291308792039j
0.00602362902447574+0.0392292030686571j
-0.0104292713102289-0.0477304486605628j
0.0640553921934076+0.0650908872484429j
-0.0728694175650219+0.104742588779603j
0.0123199200463927+0.0450693368064413j
0.0830847631441875+0.0637472471362948j
0.0150847531667636-0.0307773715572467j
0.0625+0j
0.0150847531667636+0.0307773715572467j
0.0830847631441875-0.0637472471362948j
0.0123199200463927-0.0450693368064413j
-0.0728694175650219-0.104742588779603j
0.0640553921934076-0.0650908872484429j
-0.0104292713102289+0.0477304486605628j
0.0060236290244757-0.0392292030686571j
0.0441941738241592-0.00915291308792039j
-0.010866126531327+0.0754909281102065j
0.0192640632256356-0.00172722755558706j
-0.00698991982824745-0.154200916213549j
0.0633543591289328-0.102494781604398j
0.101971837076185+0.141023184619782j
0.129102664529333+0.0449698996997442j
0.0803659927323199-0.0561707445529891j
-0.125+0.03125j
-0.0203699868139884-0.136582014776803j
0.0556104393781229-0.11946674490637j
-0.11817835997264+0.0913098689872489j
-0.0999660114806143+0.0925877398680792j
0.0452351442686429+0.0619000424912649j
0.0365077744308195+0.0404963131430718j
-0.00172230180349478+0.0763254264878791j
-0.0441941738241592+0.0533470869120796j
-0.245143918947519-0.0112981107753922j
-0.0971192616428631+0.0533423370075401j
0.05373724353279+0.0147862947624159j
-0.140518930083297-0.0346600673071256j
0.024625437980106-0.0542297338362922j
0.0339788282449936-0.014795544094091j
-0.000148736123866402+0.154239390545662j
0.1875+0j
-0.000148736123866403-0.154239390545662j
0.0339788282449936+0.014795544094091j
0.024625437980106+0.0542297338362921j
-0.140518930083297+0.0346600673071257j
0.05373724353279-0.0147862947624159j
-0.0971192616428631-0.0533423370075401j
-0.245143918947519+0.0112981107753922j
-0.0441941738241592-0.0533470869120796j
-0.00172230180349479-0.0763254264878791j
0.0365077744308195-0.0404963131430718j
0.0452351442686429-0.0619000424912649j
-0.0999660114806143-0.0925877398680792j
-0.11817835997264-0.0913098689872489j
0.0556104393781229+0.11946674490637j
-0.0203699868139885+0.136582014776803j
-0.125-0.03125j
0.0803659927323199+0.0561707445529891j
0.129102664529333-0.0449698996997442j
0.101971837076185-0.141023184619782j
0.0633543591289328+0.102494781604398j
-0.00698991982824743+0.154200916213549j
0.0192640632256356+0.00172722755558706j
-0.010866126531327-0.0754909281102065j
0.0441941738241592+0.00915291308792039j
0.00602362902447574+0.0392292030686571j
-0.0104292713102289-0.0477304486605628j
0.0640553921934076+0.0650908872484429j
-0.0728694175650219+0.104742588779603j
0.0123199200463927+0.0450693368064413j
0.0830847631441875+0.0637472471362948j
0.0150847531667636-0.0307773715572467j
0.0625+0.015625j
0.103915119018902-0.117708335615282j
0.0659651946533483-0.14314044455548j
-0.100021825409433-0.0911109786323803j
-0.0169123781295687-0.0549365266084668j
-0.0311538782812525+0.0679464716209065j
-0.0840468487163676+0.123136184389477j
-0.0504328737265803+0.0381220514530351j
-0.0625+0.00915291308792039j
-0.0289515900705103-0.0615889213979361j
0.0827342493581887-0.00712222664961615j
0.133943985703842+0.141350790674481j
0.0408300926523868+0.000558136998283786j
0.00319742363670542-0.00209803280576097j
-0.0356512874708746+0.128999447144514j
-0.0524545139021119-0.0107041846402108j
0+0j
-0.0524545139021119+0.0107041846402108j
-0.0356512874708746-0.128999447144514j
0.00319742363670545+0.00209803280576095j
0.0408300926523868-0.00055813699828379j
0.133943985703842-0.141350790674481j
0.0827342493581887+0.00712222664961615j
-0.0289515900705103+0.0615889213979361j
-0.0625-0.00915291308792039j
-0.0504328737265804-0.0381220514530351j
-0.0840468487163676-0.123136184389477j
-0.0311538782812525-0.0679464716209065j
-0.0169123781295687+0.0549365266084668j
-0.100021825409433+0.0911109786323802j
0.0659651946533483+0.14314044455548j
0.103915119018902+0.117708335615282j
0.0625-0.03125j
0.0572924775716735-0.0942746915784839j
-0.0659651946533483+0.0862523329024572j
0.11125705802573+0.187865542466907j
0.0169123781295687+0.036630700432626j
-0.161553227047832+0.0680362537212244j
0.0840468487163676+0.103800460216637j
0.0219245693447603-0.0415117213372388j
-0.0625+0.0533470869120796j
-0.105860476157217+0.0486841930776432j
-0.0827342493581887-0.104329476392588j
0.126412632143517+0.0717965056220141j
-0.0408300926523868+0.106136036825875j
-0.082082168771277-0.073982832405348j
0.0356512874708746-0.0242759064458552j
0.0545672879210833+0.0392060990103561j
0.125+0j
0.0545672879210833-0.0392060990103561j
0.0356512874708746+0.0242759064458552j
-0.082082168771277+0.073982832405348j
-0.0408300926523868-0.106136036825875j
0.126412632143517-0.0717965056220141j
-0.0827342493581887+0.104329476392588j
-0.105860476157217-0.0486841930776432j
-0.0625-0.0533470869120796j
0.0219245693447604+0.0415117213372388j
0.0840468487163676-0.103800460216637j
-0.161553227047832-0.0680362537212244j
0.0169123781295687-0.036630700432626j
0.11125705802573-0.187865542466907j
-0.0659651946533483-0.0862523329024572j
0.0572924775716735+0.0942746915784839j
0.0625+0.03125j
0.103915119018902-0.117708335615282j
0.0659651946533483-0.14314044455548j
-0.100021825409433-0.0911109786323803j
-0.0169123781295687-0.0549365266084668j
-0.0311538782812525+0.0679464716209065j
-0.0840468487163676+0.123136184389477j
-0.0504328737265803+0.0381220514530351j
-0.0625+0.00915291308792039j
-0.0289515900705103-0.0615889213979361j
0.0827342493581887-0.00712222664961615j
0.133943985703842+0.141350790674481j
0.0408300926523868+0.000558136998283786j
0.00319742363670542-0.00209803280576097j
-0.0356512874708746+0.128999447144514j
-0.0524545139021119-0.0107041846402108j
-0.03125+0.03125j
-0.00860581809390257-0.0419006767739308j
0.00296800789489277+0.0877144348786623j
0.0209122550641282+0.0297058475557695j
0.0640894396963871-0.135007272216853j
-0.00469835257386089-0.0113534659425818j
0.0210857079813154+0.0187600852532625j
0.100076751390572-0.125010959512423j
0.0479854345603981-0.137944173824159j
-0.124099781747641+0.0238253371009864j
-0.248841270384878+0.00928905099282845j
-0.0533748392406957-0.0498871616972087j
0.0539052239103634+0.0429776693470577j
-0.0828027175776889+0.0772197888755003j
0.0393419979215279-0.0177788189706988j
0.0243946466767795-0.13152561612531j
-0.15625+0j
0.0243946466767795+0.13152561612531j
0.0393419979215279+0.0177788189706988j
-0.0828027175776889-0.0772197888755002j
0.0539052239103634-0.0429776693470577j
-0.0533748392406956+0.0498871616972087j
-0.248841270384878-0.00928905099282845j
-0.124099781747641-0.0238253371009864j
0.0479854345603981+0.137944173824159j
0.100076751390572+0.125010959512423j
0.0210857079813154-0.0187600852532625j
-0.00469835257386089+0.0113534659425818j
0.0640894396963872+0.135007272216853j
0.0209122550641282-0.0297058475557696j
0.00296800789489276-0.0877144348786623j
-0.00860581809390257+0.0419006767739308j
-0.0625-0.0625j
0.026106007503759+0.0539277828409511j
0.0714096669669268+0.0142222097274524j
-0.00782072663353233-0.160178930898606j
-0.0274777873447056+0.0283130983926939j
0.047855338089291-0.0489473840388786j
0.0876710712390505+0.0015163740480786j
-0.0857147171064186+0.123114346164094j
-0.172985434560398-0.0495558261758408j
-0.0535826231460601-0.0162068920132266j
-0.0366922041321248-0.0774009393398058j
0.0778673662435401-0.0875782592386155j
0.159483123737955-0.0246718431712169j
0.00206167662881843-0.0348574431727001j
0.0630570225132895+0.031327115928495j
0.121425534522911-0.0969322193715805j
0.03125+0j
0.121425534522911+0.0969322193715805j
0.0630570225132895-0.031327115928495j
0.00206167662881843+0.0348574431727001j
0.159483123737955+0.0246718431712169j
0.0778673662435401+0.0875782592386155j
-0.0366922041321248+0.0774009393398058j
-0.0535826231460601+0.0162068920132266j
-0.172985434560398+0.0495558261758408j
-0.0857147171064186-0.123114346164094j
0.0876710712390505-0.00151637404807859j
0.047855338089291+0.0489473840388786j
-0.0274777873447056-0.0283130983926939j
-0.00782072663353232+0.160178930898606j
0.0714096669669268-0.0142222097274524j
0.026106007503759-0.0539277828409511j
-0.0625+0.0625j
-0.00860581809390257-0.0419006767739308j
0.00296800789489277+0.0877144348786623j
0.0209122550641282+0.0297058475557695j
0.0640894396963871-0.135007272216853j
-0.00469835257386089-0.0113534659425818j
0.0210857079813154+0.0187600852532625j
0.100076751390572-0.125010959512423j
0.0479854345603981-0.137944173824159j
-0.124099781747641+0.0238253371009864j
-0.248841270384878+0.00928905099282845j
-0.0533748392406957-0.0498871616972087j
0.0539052239103634+0.0429776693470577j
-0.0828027175776889+0.0772197888755003j
0.0393419979215279-0.0177788189706988j
0.0243946466767795-0.13152561612531j
-0.015625+0.015625j
0.0300409498251853+0.170473964655527j
0.0475311754829763-0.0405083083336351j
-0.102246555561819+0.00112284539062098j
-0.0668953838698758+0.104315409215137j
0.081639644167579+0.0192506191619408j
-0.04851244176554+0.0556053258451901j
0.0741311818284085-0.107058733948352j
0.119638347648318-0.154679608384557j
0.033818560408346-0.0104270562352109j
0.0214231741424235-0.0448145810844526j
-0.164061903752669+0.0647634206118674j
-0.0294293723892615+0.0249030310855683j
0.138211871773107-0.0903990548485537j
-0.0111096786035669+0.0243891868357432j
-0.0107395237776364-0.0262560672703575j
0.0625+0j
-0.0107395237776364+0.0262560672703575j
-0.0111096786035669-0.0243891868357432j
0.138211871773107+0.0903990548485537j
-0.0294293723892615-0.0249030310855683j
-0.164061903752669-0.0647634206118674j
0.0214231741424235+0.0448145810844526j
0.0338185604083459+0.0104270562352109j
0.119638347648318+0.154679608384557j
0.0741311818284085+0.107058733948352j
-0.04851244176554-0.0556053258451901j
0.081639644167579-0.0192506191619408j
-0.0668953838698758-0.104315409215137j
-0.102246555561819-0.00112284539062097j
0.0475311754829763+0.0405083083336351j
0.0300409498251853-0.170473964655527j
0.125-0.03125j
0.138949633767862+0.0899848995395145j
0.0647748866881602-0.0323611092313868j
0.0465512633232216-0.034014156832987j
0.048589557694035+0.0465729384331815j
-0.0351186426866596+0.022053777180815j
-0.0976183766647339-0.118959684974123j
0.0257891419389628-0.00605296498876847j
-0.0571383476483184+0.154679608384557j
-0.113000049045673-0.00478123661750237j
-0.0520690510087865-0.0551514303961617j
-0.134167815986116-0.0122352475751569j
-0.0772648014348977+0.000985316562750166j
-0.00758455657328083+0.141954824803505j
0.0755803117290673+0.116129743247553j
-0.00221319964881825-0.0421583577468301j
-0.1875+0j
-0.00221319964881825+0.0421583577468301j
0.0755803117290673-0.116129743247553j
-0.00758455657328083-0.141954824803505j
-0.0772648014348977-0.000985316562750162j
-0.134167815986116+0.0122352475751569j
-0.0520690510087865+0.0551514303961617j
-0.113000049045673+0.00478123661750238j
-0.0571383476483184-0.154679608384557j
0.0257891419389628+0.00605296498876846j
-0.0976183766647339+0.118959684974123j
-0.0351186426866596-0.022053777180815j
0.048589557694035-0.0465729384331815j
0.0465512633232216+0.034014156832987j
0.0647748866881602+0.0323611092313868j
0.138949633767862-0.0899848995395145j
0.125+0.03125j
0.0300409498251853+0.170473964655527j
0.0475311754829763-0.0405083083336351j
-0.102246555561819+0.00112284539062098j
-0.0668953838698758+0.104315409215137j
0.081639644167579+0.0192506191619408j
-0.04851244176554+0.0556053258451901j
0.0741311818284085-0.107058733948352j
0.119638347648318-0.154679608384557j
0.033818560408346-0.0104270562352109j
0.0214231741424235-0.0448145810844526j
-0.164061903752669+0.0647634206118674j
-0.0294293723892615+0.0249030310855683j
0.138211871773107-0.0903990548485537j
-0.0111096786035669+0.0243891868357432j
-0.0107395237776364-0.0262560672703575j
0.015625-0.046875j
0.0835931621993244-0.0976855791491384j
-0.0519469214863878-0.0531697562089604j
0.0563305809290592-0.148240315251892j
0.183596829910888-0.171210793085013j
0.00927201876109775-0.0750407521825912j
-0.125184496639463-0.043394918535894j
-0.0509935000359243-0.0343845836134264j
-0.03125-0.00915291308792039j
0.0146762012477645-0.00848925325928626j
0.0352749581003688+0.0370591663229908j
-0.0560399946228852+0.0757596124763245j
-0.03428713208784+0.00452634130369323j
0.0142642815602284-0.0563174124671152j
0.114585726490529-0.0269567928644464j
0.0294998739496051+0.0029958584050948j
-0.15625+0j
0.0294998739496051-0.0029958584050948j
0.114585726490529+0.0269567928644464j
0.0142642815602284+0.0563174124671152j
-0.03428713208784-0.00452634130369322j
-0.0560399946228852-0.0757596124763245j
0.0352749581003688-0.0370591663229908j
0.0146762012477645+0.00848925325928626j
-0.03125+0.00915291308792039j
-0.0509935000359243+0.0343845836134264j
-0.125184496639463+0.043394918535894j
0.00927201876109775+0.0750407521825912j
0.183596829910888+0.171210793085013j
0.0563305809290592+0.148240315251892j
-0.0519469214863878+0.0531697562089604j
0.0835931621993245+0.0976855791491384j
-0.03125+0.09375j
-0.0805604141031673-0.0386635677901182j
0.0909915827922724-0.0237328998777685j
-0.0918882188704568+0.0503943681019792j
-0.0952084822625698+0.0020166192608535j
-0.0377164382160025-0.00583909377042055j
-0.0198300477942432-0.0290121232004252j
0.205795378715536-0.135525144335524j
-0.03125-0.0533470869120796j
-0.0332543032334214+0.090288243568201j
0.146351238685019+0.01553379194069j
-0.119388875134439-0.000601598262743171j
-0.0541012155604784+0.0762794848721476j
0.0483899502967617-0.0622673698128417j
0.0597579598519048-0.174945863222283j
0.00802029655691991-0.0644129823831227j
-0.15625+0j
0.00802029655691991+0.0644129823831227j
0.0597579598519048+0.174945863222283j
0.0483899502967617+0.0622673698128417j
-0.0541012155604784-0.0762794848721476j
-0.119388875134439+0.000601598262743162j
0.146351238685019-0.01553379194069j
-0.0332543032334214-0.0902882435682011j
-0.03125+0.0533470869120796j
0.205795378715536+0.135525144335524j
-0.0198300477942432+0.0290121232004252j
-0.0377164382160025+0.00583909377042054j
-0.0952084822625698-0.00201661926085354j
-0.0918882188704568-0.0503943681019792j
0.0909915827922724+0.0237328998777685j
-0.0805604141031673+0.0386635677901182j
-0.03125-0.09375j
0.0835931621993244-0.0976855791491384j
-0.0519469214863878-0.0531697562089604j
0.0563305809290592-0.148240315251892j
0.183596829910888-0.171210793085013j
0.00927201876109775-0.0750407521825912j
-0.125184496639463-0.043394918535894j
-0.0509935000359243-0.0343845836134264j
-0.03125-0.00915291308792039j
0.0146762012477645-0.00848925325928626j
0.0352749581003688+0.0370591663229908j
-0.0560399946228852+0.0757596124763245j
-0.03428713208784+0.00452634130369323j
0.0142642815602284-0.0563174124671152j
0.114585726490529-0.0269567928644464j
0.0294998739496051+0.0029958584050948j
-0.046875-0.015625j
-0.0014440340165519+0.0411754977662548j
-0.0322007070000593-0.0420658055665646j
0.00208935268810637+0.0529124394684818j
-0.132432515957716+0.135565409215137j
0.00292947512916863-0.0143776260109279j
0.0374922592247757+0.0547185228705242j
-0.0226711836510196+0.123895019739032j
-0.119638347648318-0.0220970869120796j
-0.224383310729544+0.0418296655779614j
0.0771133965482746+0.0355635180368413j
0.131648606673012-0.121893118496597j
-0.155887854651831-0.00634696891443173j
-0.099916501605728+0.0372479278825924j
0.0655605941716233-0.0163119181421696j
0.0440993897495015+0.0926236478965091j
0+0j
0.0440993897495015-0.0926236478965091j
0.0655605941716233+0.0163119181421696j
-0.099916501605728-0.0372479278825924j
-0.155887854651831+0.00634696891443172j
0.131648606673012+0.121893118496597j
0.0771133965482746-0.0355635180368413j
-0.224383310729544-0.0418296655779614j
-0.119638347648318+0.0220970869120796j
-0.0226711836510196-0.123895019739032j
0.0374922592247757-0.0547185228705242j
0.00292947512916863+0.014377626010928j
-0.132432515957716-0.135565409215137j
0.00208935268810637-0.0529124394684818j
-0.0322007070000593+0.0420658055665647j
-0.00144403401655191-0.0411754977662548j
0.0625+0.03125j
-0.0779418551005304+0.0604505096092766j
0.122259676744354-0.0542589506925727j
0.11510770950675-0.0163655723437706j
-0.0367616578664434+0.0778229384331815j
-0.0171196771868802+0.0830643268379317j
-0.104025497746483+0.0894416624342493j
0.025190604585537+0.0979815589788277j
0.0571383476483184+0.0220970869120796j
0.0856401131010718-0.0716618051179671j
0.202808189621751-0.0164033327320678j
0.086414884596929+0.0345419591570079j
0.0750820284759905-0.0302646834372498j
-0.0443771545047204+0.0200377743721626j
-0.119007911564237+0.0449871618830323j
-0.00526641923510142-0.0659296634822063j
0+0j
-0.00526641923510142+0.0659296634822063j
-0.119007911564237-0.0449871618830323j
-0.0443771545047204-0.0200377743721626j
0.0750820284759905+0.0302646834372498j
0.086414884596929-0.0345419591570079j
0.202808189621751+0.0164033327320678j
0.0856401131010718+0.0716618051179671j
0.0571383476483184-0.0220970869120796j
0.025190604585537-0.0979815589788276j
-0.104025497746483-0.0894416624342493j
-0.0171196771868802-0.0830643268379317j
-0.0367616578664434-0.0778229384331815j
0.11510770950675+0.0163655723437706j
0.122259676744354+0.0542589506925727j
-0.0779418551005304-0.0604505096092766j
0.0625-0.03125j
-0.0014440340165519+0.0411754977662548j
-0.0322007070000593-0.0420658055665646j
0.00208935268810637+0.0529124394684818j
-0.132432515957716+0.135565409215137j
0.00292947512916863-0.0143776260109279j
0.0374922592247757+0.0547185228705242j
-0.0226711836510196+0.123895019739032j
-0.119638347648318-0.0220970869120796j
-0.224383310729544+0.0418296655779614j
0.0771133965482746+0.0355635180368413j
0.131648606673012-0.121893118496597j
-0.155887854651831-0.00634696891443173j
-0.099916501605728+0.0372479278825924j
0.0655605941716233-0.0163119181421696j
0.0440993897495015+0.0926236478965091j
0.03125-0.03125j
0.0938410260574597-0.0219755293655237j
0.00893800930022544-0.0661695813638677j
-0.00132154666071563+0.0636417395445262j
-0.0999200253452611+0.00139344804627213j
-0.0710669026505832+0.0346776790951423j
0.127122014506568+0.0215540803439929j
0.0731610324861861+0.00623137946872362j
-0.00915291308792039+0.0625j
0.043089314064519-0.059752555859655j
0.0295160370746202+0.091112038854824j
0.0548593140929551+0.0440649823543056j
-0.00816759652517023-0.147524266476546j
-0.0729470866269001+0.0111560610808393j
0.0914818976294172-0.0439869834628887j
-0.036374842829309-0.12243500869772j
-0.28125+0j
-0.036374842829309+0.12243500869772j
0.0914818976294172+0.0439869834628887j
-0.0729470866269001-0.0111560610808393j
-0.00816759652517022+0.147524266476546j
0.0548593140929551-0.0440649823543056j
0.0295160370746202-0.0911120388548241j
0.043089314064519+0.059752555859655j
-0.00915291308792039-0.0625j
0.0731610324861862-0.00623137946872361j
0.127122014506568-0.0215540803439929j
-0.0710669026505832-0.0346776790951423j
-0.0999200253452611-0.00139344804627212j
-0.00132154666071563-0.0636417395445262j
0.00893800930022543+0.0661695813638677j
0.0938410260574597+0.0219755293655238j
0.0625+0.0625j
-0.0379222828364904+0.0987239535952626j
0.0192748586119345-0.0639799311544069j
-0.0658919583816739+0.101067180871405j
-0.157662496127217+0.0352182043054094j
0.0326483488394703-0.0278033854549803j
0.11897481540432+0.204266290265554j
0.00841450684035687+0.104726857163101j
-0.0533470869120796+0.0625j
-0.0841119347883798+0.0957787695302506j
-0.0622245193371899+0.00970833175472301j
0.0106558336337502-0.0164518535840998j
0.0157501179976479-0.0658640811717725j
-0.0637126975429397-0.00248500083150165j
-0.0830831131898956+0.0388374709446141j
0.116679876302294-0.0525252853304068j
0.28125+0j
0.116679876302294+0.0525252853304068j
-0.0830831131898957-0.0388374709446141j
-0.0637126975429397+0.00248500083150164j
0.0157501179976479+0.0658640811717724j
0.0106558336337502+0.0164518535840998j
-0.0622245193371899-0.00970833175472302j
-0.0841119347883798-0.0957787695302506j
-0.0533470869120796-0.0625j
0.00841450684035686-0.104726857163101j
0.11897481540432-0.204266290265554j
0.0326483488394703+0.0278033854549803j
-0.157662496127217-0.0352182043054094j
-0.0658919583816739-0.101067180871405j
0.0192748586119345+0.0639799311544069j
-0.0379222828364904-0.0987239535952626j
0.0625-0.0625j
0.0938410260574597-0.0219755293655237j
0.00893800930022544-0.0661695813638677j
-0.00132154666071563+0.0636417395445262j
-0.0999200253452611+0.00139344804627213j
-0.0710669026505832+0.0346776790951423j
0.127122014506568+0.0215540803439929j
0.0731610324861861+0.00623137946872362j
-0.00915291308792039+0.0625j
0.043089314064519-0.059752555859655j
0.0295160370746202+0.091112038854824j
0.0548593140929551+0.0440649823543056j
-0.00816759652517023-0.147524266476546j
-0.0729470866269001+0.0111560610808393j
0.0914818976294172-0.0439869834628887j
-0.036374842829309-0.12243500869772j
-0.109375-0.0625j
0.00544168019165596+0.0559698740347669j
0.0655798879279697-0.0503330693762785j
0.127325740459001-0.20385595695917j
0.0744588572614091+0.0147648014348977j
0.124293855417044+0.00694752904949473j
0.12187355734866-0.0245357052663089j
-0.0662843636507657+0.0671876407010761j
-0.191291260736239+0.09375j
0.0932295837764576+0.0974893214239282j
0.179374230206113-0.0323083822110587j
0.0236770668030649-0.0824409649645019j
0.0913712353909777-0.00439538386987582j
-0.0905964611296346+0.0332418503375397j
-0.125133604949574+0.00605424957388875j
0.0187636978753815-0.0815550595606011j
-0.03125+0j
0.0187636978753815+0.0815550595606011j
-0.125133604949574-0.00605424957388875j
-0.0905964611296346-0.0332418503375397j
0.0913712353909777+0.00439538386987581j
0.0236770668030649+0.0824409649645019j
0.179374230206112+0.0323083822110587j
0.0932295837764576-0.0974893214239282j
-0.191291260736239-0.09375j
-0.0662843636507657-0.0671876407010761j
0.12187355734866+0.0245357052663089j
0.124293855417044-0.00694752904949474j
0.0744588572614091-0.0147648014348977j
0.127325740459001+0.20385595695917j
0.0655798879279697+0.0503330693762785j
0.00544168019165597-0.0559698740347669j
0.0625+0.125j
-0.0655557300628134-0.0521107281213101j
-0.0723080502715146-0.0994390042754724j
0.0594324154863196+0.0223144061520128j
0.0505411427385909-0.0330706276107385j
-0.0526579260801328-0.0143831449574582j
-0.0673099659594789-0.111225695598943j
0.0092669468026807-0.101638504454985j
-0.0587087392637612+0.09375j
-0.0362121669283726+0.040895243867799j
-0.0571611262986568-0.0150646710058748j
-0.0953129961399758+0.0654902906204493j
0.0336287646090223+0.111089557694035j
-0.0961616948156863+0.0257015404192138j
-0.0449149280035177-0.0674379755773212j
0.041350351995776+0.00824963451969404j
-0.09375+0j
0.041350351995776-0.00824963451969403j
-0.0449149280035177+0.0674379755773212j
-0.0961616948156863-0.0257015404192139j
0.0336287646090223-0.111089557694035j
-0.0953129961399758-0.0654902906204493j
-0.0571611262986568+0.0150646710058748j
-0.0362121669283726-0.040895243867799j
-0.0587087392637612-0.09375j
0.0092669468026807+0.101638504454985j
-0.0673099659594789+0.111225695598943j
-0.0526579260801328+0.0143831449574582j
0.0505411427385909+0.0330706276107385j
0.0594324154863196-0.0223144061520128j
-0.0723080502715146+0.0994390042754724j
-0.0655557300628134+0.0521107281213101j
0.0625-0.125j
0.00544168019165596+0.0559698740347669j
0.0655798879279697-0.0503330693762785j
0.127325740459001-0.20385595695917j
0.0744588572614091+0.0147648014348977j
0.124293855417044+0.00694752904949473j
0.12187355734866-0.0245357052663089j
-0.0662843636507657+0.0671876407010761j
-0.191291260736239+0.09375j
0.0932295837764576+0.0974893214239282j
0.179374230206113-0.0323083822110587j
0.0236770668030649-0.0824409649645019j
0.0913712353909777-0.00439538386987582j
-0.0905964611296346+0.0332418503375397j
-0.125133604949574+0.00605424957388875j
0.0187636978753815-0.0815550595606011j
-0.015625+0.046875j
-0.208745460205781-0.0416180795297563j
-0.00890926184260516+0.0219561991026321j
-0.109018251131184-0.00199471375902308j
-0.196113824170581-0.0874030310855683j
0.00910258064964927+0.095806581363636j
-0.0772283585412261+0.185084092872953j
0.0295054853912986+0.0130869954294943j
0.0495558261758408-0.0404029130879204j
0.0241007604954236+0.00165399556644858j
0.154458550413433-0.0103230442957202j
0.0188533061783106+0.0117834007400808j
0.0420465971294883+0.0159270615668185j
0.048752865671673-0.00987417790388493j
-0.0618496166430241+0.0438333148018889j
0.0132862176597496+0.0847301687649309j
0.0625+0j
0.0132862176597496-0.0847301687649309j
-0.0618496166430241-0.0438333148018889j
0.048752865671673+0.00987417790388492j
0.0420465971294883-0.0159270615668185j
0.0188533061783106-0.0117834007400808j
0.154458550413433+0.0103230442957202j
0.0241007604954236-0.00165399556644859j
0.0495558261758408+0.0404029130879204j
0.0295054853912986-0.0130869954294944j
-0.0772283585412261-0.185084092872953j
0.00910258064964927-0.095806581363636j
-0.196113824170581+0.0874030310855683j
-0.109018251131184+0.00199471375902308j
-0.00890926184260515-0.0219561991026321j
-0.208745460205781+0.0416180795297563j
0-0.09375j
0.0215920210516465-0.101752266614177j
-0.000997779893714047+0.00757340376716335j
0.135070330445571-0.105168035794334j
0.00103130269810334-0.0634853165627502j
-0.0334563026483525+0.157403467033745j
-0.0621742975455029+0.037095022515117j
-0.00423261903669224-0.158581571514741j
0.137944173824159-0.0845970869120796j
0.0255583961111987+0.00494802226389734j
-0.015055894326704+0.0191138120354718j
0.0262392509504364-0.0197971290366543j
0.0280359243429894-0.0418154092151369j
0.0812329151805326+0.06826434695321j
0.0717566583793433+0.0223079404195881j
-0.0778414967634804-0.149227225696634j
-0.1875+0j
-0.0778414967634804+0.149227225696634j
0.0717566583793433-0.0223079404195881j
0.0812329151805326-0.06826434695321j
0.0280359243429894+0.0418154092151369j
0.0262392509504364+0.0197971290366543j
-0.015055894326704-0.0191138120354718j
0.0255583961111987-0.00494802226389734j
0.137944173824159+0.0845970869120796j
-0.00423261903669226+0.158581571514741j
-0.0621742975455029-0.037095022515117j
-0.0334563026483525-0.157403467033745j
0.00103130269810337+0.0634853165627502j
0.135070330445571+0.105168035794334j
-0.000997779893714038-0.00757340376716335j
0.0215920210516465+0.101752266614177j
0+0.09375j
-0.208745460205781-0.0416180795297563j
-0.00890926184260516+0.0219561991026321j
-0.109018251131184-0.00199471375902308j
-0.196113824170581-0.0874030310855683j
0.00910258064964927+0.095806581363636j
-0.0772283585412261+0.185084092872953j
0.0295054853912986+0.0130869954294943j
0.0495558261758408-0.0404029130879204j
0.0241007604954236+0.00165399556644858j
0.154458550413433-0.0103230442957202j
0.0188533061783106+0.0117834007400808j
0.0420465971294883+0.0159270615668185j
0.048752865671673-0.00987417790388493j
-0.0618496166430241+0.0438333148018889j
0.0132862176597496+0.0847301687649309j
0.125+0.09375j
-0.0553245763697689-0.00717398455947803j
-0.00493599011206789-0.0195994465814373j
0.0754389554346048+0.0836476030821698j
0.0145336135205464+0.0220970869120796j
0.084067336964664-0.00137739647785827j
-0.0752465322197523-0.113046323209682j
0.0458727033916834-0.10488611569781j
0.172985434560398+0.0495558261758408j
-0.0548013433071661+0.0278520390300822j
-0.0522626423330069-0.0610794724407725j
-0.0212118196217824-0.0684468847994139j
-0.0840389499137958+0.0220970869120796j
-0.106021511336129-0.0361103676650516j
-0.0235400081779011-0.0317925917074454j
0.149671795130553+0.197774385869158j
0.21875+0j
0.149671795130553-0.197774385869158j
-0.0235400081779011+0.0317925917074454j
-0.106021511336129+0.0361103676650516j
-0.0840389499137958-0.0220970869120796j
-0.0212118196217825+0.0684468847994139j
-0.0522626423330069+0.0610794724407725j
-0.0548013433071661-0.0278520390300822j
0.172985434560398-0.0495558261758408j
0.0458727033916834+0.10488611569781j
-0.0752465322197523+0.113046323209682j
0.084067336964664+0.00137739647785827j
0.0145336135205464-0.0220970869120796j
0.0754389554346048-0.0836476030821698j
-0.00493599011206789+0.0195994465814373j
-0.0553245763697689+0.00717398455947804j
0.1875-0.1875j
0.0357092860753829-0.0563441062355237j
0.0204549201953644+0.0295064883177565j
0.0861309801343403-0.0236190289105256j
-0.0770336135205464+0.0220970869120796j
0.0371431030006388-0.0120862545017074j
0.0502125437003667-0.0263563328770474j
-0.0739426006890896+0.024124313697624j
-0.0479854345603981+0.137944173824159j
-0.0326137009593385+0.122356042097554j
-0.136091716795926-0.0783231836459564j
-0.147834049389157-0.0406876242714242j
0.0215389499137958+0.0220970869120796j
-0.00771299518717991+0.000468083745423405j
-0.028590574257077+0.0416996334437646j
-0.0145715632722564-0.0303225935363382j
-0.09375+0j
-0.0145715632722564+0.0303225935363382j
-0.028590574257077-0.0416996334437646j
-0.00771299518717991-0.000468083745423405j
0.0215389499137958-0.0220970869120796j
-0.147834049389157+0.0406876242714242j
-0.136091716795926+0.0783231836459564j
-0.0326137009593386-0.122356042097554j
-0.0479854345603981-0.137944173824159j
-0.0739426006890896-0.024124313697624j
0.0502125437003667+0.0263563328770474j
0.0371431030006388+0.0120862545017074j
-0.0770336135205464-0.0220970869120796j
0.0861309801343403+0.0236190289105256j
0.0204549201953644-0.0295064883177565j
0.0357092860753829+0.0563441062355237j
0.1875+0.1875j
-0.0553245763697689-0.00717398455947803j
-0.00493599011206789-0.0195994465814373j
0.0754389554346048+0.0836476030821698j
0.0145336135205464+0.0220970869120796j
0.084067336964664-0.00137739647785827j
-0.0752465322197523-0.113046323209682j
0.0458727033916834-0.10488611569781j
0.172985434560398+0.0495558261758408j
-0.0548013433071661+0.0278520390300822j
-0.0522626423330069-0.0610794724407725j
-0.0212118196217824-0.0684468847994139j
-0.0840389499137958+0.0220970869120796j
-0.106021511336129-0.0361103676650516j
-0.0235400081779011-0.0317925917074454j
0.149671795130553+0.197774385869158j
0.078125-0.03125j
-0.00952686686936541-0.000980180430656813j
0.0920843430820695+0.0933519984597051j
0.0122542507464824-0.0123322021045816j
-0.0215389499137958+0.0437669942596928j
-0.0260628503800669+0.0656439313663273j
-0.175046008383546+0.0055451806708327j
-0.0165700645869198+0.142817307697353j
0.128791260736239+0.0571383476483184j
0.0030732954124128-0.00197041041848414j
0.137473497990642+0.156780924855889j
0.140885988477136+0.122661277716603j
-0.0145336135205464-0.0234905349583517j
0.0652331211748491+0.0145000570012618j
-0.079751646379241+0.104510154235817j
-0.159458739567379+0.0249788624293456j
-0.03125+0j
-0.159458739567379-0.0249788624293456j
-0.079751646379241-0.104510154235817j
0.0652331211748491-0.0145000570012618j
-0.0145336135205464+0.0234905349583517j
0.140885988477136-0.122661277716603j
0.137473497990642-0.156780924855889j
0.00307329541241281+0.00197041041848414j
0.128791260736239-0.0571383476483184j
-0.0165700645869198-0.142817307697353j
-0.175046008383546-0.00554518067083269j
-0.0260628503800669-0.0656439313663273j
-0.0215389499137958-0.0437669942596928j
0.0122542507464824+0.0123322021045816j
0.0920843430820696-0.0933519984597051j
-0.00952686686936542+0.000980180430656813j
-0.0625+0.0625j
-0.0724439556659913+0.0397492660181416j
-0.069282902555819-0.0761624462804319j
0.00530009768928481-0.0662105891258043j
0.0840389499137958+0.125427179564466j
0.129036683294911+0.00885291384029891j
0.00743048438465753-0.00236630127805843j
-0.11009803186837-0.0417445220292497j
-0.00379126073623884-0.119638347648318j
0.0623030473101512+0.103043196086587j
-0.00646962634343455+0.0231746498335219j
-0.019247697049707-0.0481644325099764j
0.0770336135205464-0.0573152912174891j
0.0461537966403844-0.0930428482316477j
-0.156438141795328+0.0894560932400934j
-0.0508320747578122+0.0137902231581392j
0.15625+0j
-0.0508320747578122-0.0137902231581392j
-0.156438141795328-0.0894560932400934j
0.0461537966403844+0.0930428482316477j
0.0770336135205464+0.057315291217489j
-0.019247697049707+0.0481644325099764j
-0.00646962634343455-0.0231746498335219j
0.0623030473101512-0.103043196086587j
-0.00379126073623884+0.119638347648318j
-0.11009803186837+0.0417445220292497j
0.00743048438465753+0.00236630127805842j
0.129036683294911-0.00885291384029891j
0.0840389499137958-0.125427179564466j
0.00530009768928481+0.0662105891258043j
-0.069282902555819+0.0761624462804319j
-0.0724439556659913-0.0397492660181416j
-0.0625-0.0625j
-0.00952686686936541-0.000980180430656813j
0.0920843430820695+0.0933519984597051j
0.0122542507464824-0.0123322021045816j
-0.0215389499137958+0.0437669942596928j
-0.0260628503800669+0.0656439313663273j
-0.175046008383546+0.0055451806708327j
-0.0165700645869198+0.142817307697353j
0.128791260736239+0.0571383476483184j
0.0030732954124128-0.00197041041848414j
0.137473497990642+0.156780924855889j
0.140885988477136+0.122661277716603j
-0.0145336135205464-0.0234905349583517j
0.0652331211748491+0.0145000570012618j
-0.079751646379241+0.104510154235817j
-0.159458739567379+0.0249788624293456j
-0.046875-0.046875j
0.026348952806903-0.0676363879173892j
-0.0337058805375173+0.121039509121015j
-0.0493828517495417+0.16777807023798j
0.0754441738241592-0.0123860368258754j
-0.0238460386375139-0.110762425682116j
-0.0100020917457625+0.0111466884921524j
0.108886391205005+0.0197501964951851j
0.106694173824159+0.0274587392637612j
-0.0546601805863186+0.176967625565913j
-0.0447252313094876+0.136857062145853j
0.103046707628738+0.0137724755367793j
-0.0129441738241592-0.0388134733915332j
-0.0116750249132788-0.0162642175169101j
0.0275931994876846+0.0356465375663351j
0.0360631065971917-0.0173932849415969j
0.125+0j
0.0360631065971916+0.0173932849415968j
0.0275931994876846-0.0356465375663351j
-0.0116750249132788+0.0162642175169101j
-0.0129441738241592+0.0388134733915333j
0.103046707628738-0.0137724755367793j
-0.0447252313094876-0.136857062145853j
-0.0546601805863186-0.176967625565913j
0.106694173824159-0.0274587392637612j
0.108886391205005-0.0197501964951851j
-0.0100020917457625-0.0111466884921524j
-0.0238460386375139+0.110762425682116j
0.0754441738241592+0.0123860368258754j
-0.0493828517495417-0.16777807023798j
-0.0337058805375173-0.121039509121015j
0.026348952806903+0.0676363879173892j
-0.0625+0.09375j
0.0598724617965333+0.0632484879894438j
0.0154000543616766+0.0278782054018031j
-0.0124055650561734-0.100500680268676j
0.0754441738241592+0.0931918630017162j
-0.0714511270175427+0.170897236604588j
-0.0966920820783967-0.078404217710197j
0.00703776552776474+0.0944141176035138j
0.0183058261758408+0.160041260736239j
-0.109099405192087+0.00484620105106067j
-0.0619689425146716+0.0458854086361021j
0.107735399590229-0.116958035223854j
-0.0129441738241592-0.130380700432626j
-0.042021499844917-0.0797787631233322j
-0.0458990256635254-0.136728823043517j
-0.0744490921549917+0.0806548975319261j
0+0j
-0.0744490921549917-0.0806548975319261j
-0.0458990256635253+0.136728823043517j
-0.042021499844917+0.0797787631233322j
-0.0129441738241592+0.130380700432626j
0.107735399590229+0.116958035223854j
-0.0619689425146716-0.0458854086361022j
-0.109099405192087-0.00484620105106066j
0.0183058261758408-0.160041260736239j
0.00703776552776474-0.0944141176035138j
-0.0966920820783967+0.078404217710197j
-0.0714511270175427-0.170897236604588j
0.0754441738241592-0.0931918630017162j
-0.0124055650561734+0.100500680268676j
0.0154000543616766-0.0278782054018031j
0.0598724617965333-0.0632484879894438j
-0.0625-0.09375j
0.026348952806903-0.0676363879173892j
-0.0337058805375173+0.121039509121015j
-0.0493828517495417+0.16777807023798j
0.0754441738241592-0.0123860368258754j
-0.0238460386375139-0.110762425682116j
-0.0100020917457625+0.0111466884921524j
0.108886391205005+0.0197501964951851j
0.106694173824159+0.0274587392637612j
-0.0546601805863186+0.176967625565913j
-0.0447252313094876+0.136857062145853j
0.103046707628738+0.0137724755367793j
-0.0129441738241592-0.0388134733915332j
-0.0116750249132788-0.0162642175169101j
0.0275931994876846+0.0356465375663351j
0.0360631065971917-0.0173932849415969j
0.078125+0.046875j
0.00419195828901707-0.0136428810779108j
-0.0590774873522835-0.0417779491765239j
0.0579728454707984-0.105349556036013j
-0.0772648014348977+0.0153229384331815j
-0.19513262473158+0.11975714284872j
-0.0328754324400313+0.0550512391270927j
0.0959357213038021-0.0848653919805261j
0.150888347648318-0.14709708691208j
0.0378914726234567+0.0185234868000135j
-0.0443435236321689-0.0605850612156362j
-0.021895745326204-0.100320940935929j
-0.0668953838698758+0.0322353165627502j
-0.062404465394772-0.104300850544516j
-0.119907991648287-0.136742398575012j
-0.055756875838555-0.0207614053071238j
0.09375+0j
-0.055756875838555+0.0207614053071238j
-0.119907991648288+0.136742398575012j
-0.062404465394772+0.104300850544516j
-0.0668953838698758-0.0322353165627502j
-0.021895745326204+0.100320940935929j
-0.0443435236321689+0.0605850612156362j
0.0378914726234567-0.0185234868000135j
0.150888347648318+0.14709708691208j
0.0959357213038021+0.0848653919805261j
-0.0328754324400313-0.0550512391270927j
-0.19513262473158-0.11975714284872j
-0.0772648014348977-0.0153229384331815j
0.0579728454707984+0.105349556036013j
-0.0590774873522835+0.0417779491765239j
0.00419195828901708+0.0136428810779108j
0.03125-0.09375j
-0.0379951237755564-0.0149675774359816j
0.0388010280509424+0.0226177638717504j
0.0466533417475774-0.0973668373770733j
-0.0294293723892615+0.0730654092151369j
-0.105861557696692-0.0772229649194775j
0.0193271354822351-0.15137599538623j
0.141711372834627+0.0572273365483925j
-0.0258883476483184-0.10290291308792j
0.0240055805416155-0.0095498898804655j
0.146280168238283+0.0892603049564989j
0.0513671260239721-0.0705332287831472j
0.048589557694035+0.0561530310855683j
0.0525243846102633+0.114972804779748j
0.0517961033013102-0.00741778672976155j
-0.0332074106817705-0.0444607055584501j
-0.15625+0j
-0.0332074106817705+0.0444607055584501j
0.0517961033013102+0.00741778672976154j
0.0525243846102633-0.114972804779748j
0.048589557694035-0.0561530310855683j
0.0513671260239721+0.0705332287831471j
0.146280168238283-0.0892603049564989j
0.0240055805416155+0.0095498898804655j
-0.0258883476483184+0.10290291308792j
0.141711372834627-0.0572273365483925j
0.0193271354822351+0.15137599538623j
-0.105861557696692+0.0772229649194775j
-0.0294293723892615-0.0730654092151369j
0.0466533417475774+0.0973668373770733j
0.0388010280509424-0.0226177638717504j
-0.0379951237755565+0.0149675774359816j
0.03125+0.09375j
0.00419195828901707-0.0136428810779108j
-0.0590774873522835-0.0417779491765239j
0.0579728454707984-0.105349556036013j
-0.0772648014348977+0.0153229384331815j
-0.19513262473158+0.11975714284872j
-0.0328754324400313+0.0550512391270927j
0.0959357213038021-0.0848653919805261j
0.150888347648318-0.14709708691208j
0.0378914726234567+0.0185234868000135j
-0.0443435236321689-0.0605850612156362j
-0.021895745326204-0.100320940935929j
-0.0668953838698758+0.0322353165627502j
-0.062404465394772-0.104300850544516j
-0.119907991648287-0.136742398575012j
-0.055756875838555-0.0207614053071238j
0.0625-0.09375j
0.0123745963908566-0.00946698668251247j
0.0924232873565653+0.0500420277167202j
0.176943360678396+0.00665109680664681j
-0.0653059441734887+0.0239177145228181j
-0.107336561480076-0.0219775934985861j
0.0829198957720322-0.111341107741922j
0.0436891189251098-0.139433663359615j
0.0220970869120796-0.0808058261758408j
-0.156026069119837+0.0272130535550899j
-0.0622437000475735+0.015318888152995j
0.129311101975064-0.0786393927328305j
-0.0380241484788981-0.0577424707819554j
0.106081134185594-0.0202059757625171j
-0.0409198572879931-0.059374256973013j
-0.13723685016935-0.0587945791584327j
0.125+0j
-0.13723685016935+0.0587945791584327j
-0.0409198572879931+0.059374256973013j
0.106081134185594+0.0202059757625171j
-0.0380241484788981+0.0577424707819554j
0.129311101975064+0.0786393927328305j
-0.0622437000475735-0.015318888152995j
-0.156026069119837-0.0272130535550899j
0.0220970869120796+0.0808058261758408j
0.0436891189251098+0.139433663359615j
0.0829198957720322+0.111341107741922j
-0.107336561480076+0.0219775934985861j
-0.0653059441734887-0.0239177145228181j
0.176943360678396-0.00665109680664682j
0.0924232873565653-0.0500420277167202j
0.0123745963908566+0.00946698668251247j
0.03125+0.1875j
0.0278351167279296+0.129358925688096j
-0.0383220717960869+0.0124579722832798j
-0.0321156163549927+0.0657790133739063j
-0.0413882296506706-0.0239177145228181j
-0.0889447064505967-0.0955125055574012j
0.0122885864905375+0.0488411077419221j
-0.0192475432552023-0.0336101565689223j
-0.0220970869120796-0.169194173824159j
0.0233820623289731+0.0131314741646915j
-0.121353129863315+0.047181111847005j
-0.123446798569531-0.0754623586748384j
0.0197183223030573+0.0577424707819554j
0.116284781312779+0.129247738294752j
0.0752069893758331-0.00312574302698701j
0.0284528728748839-0.0347018294843022j
0.0625+0j
0.0284528728748839+0.0347018294843023j
0.0752069893758331+0.00312574302698702j
0.116284781312779-0.129247738294752j
0.0197183223030573-0.0577424707819554j
-0.123446798569531+0.0754623586748384j
-0.121353129863315-0.047181111847005j
0.0233820623289731-0.0131314741646915j
-0.0220970869120796+0.169194173824159j
-0.0192475432552023+0.0336101565689223j
0.0122885864905375-0.0488411077419221j
-0.0889447064505967+0.0955125055574012j
-0.0413882296506706+0.0239177145228181j
-0.0321156163549927-0.0657790133739063j
-0.0383220717960869-0.0124579722832798j
0.0278351167279296-0.129358925688096j
0.03125-0.1875j
0.0123745963908566-0.00946698668251247j
0.0924232873565653+0.0500420277167202j
0.176943360678396+0.00665109680664681j
-0.0653059441734887+0.0239177145228181j
-0.107336561480076-0.0219775934985861j
0.0829198957720322-0.111341107741922j
0.0436891189251098-0.139433663359615j
0.0220970869120796-0.0808058261758408j
-0.156026069119837+0.0272130535550899j
-0.0622437000475735+0.015318888152995j
0.129311101975064-0.0786393927328305j
-0.0380241484788981-0.0577424707819554j
0.106081134185594-0.0202059757625171j
-0.0409198572879931-0.059374256973013j
-0.13723685016935-0.0587945791584327j
0.0625+0j
