NUM_SI 4
NUM_MI 1
NUM_CLKS 1
S00_AXI.CONFIG.SUPPORTS_NARROW_BURST 0
S00_AXI.CONFIG.DATA_WIDTH 64
S00_AXI.CONFIG.DATAWIDTH 64
S00_AXI.CONFIG.PROTOCOL AXI3
S00_AXI.CONFIG.FREQ_HZ 100000000
S00_AXI.CONFIG.ID_WIDTH 0
S00_AXI.CONFIG.ADDR_WIDTH 29
S00_AXI.CONFIG.AWUSER_WIDTH 0
S00_AXI.CONFIG.ARUSER_WIDTH 0
S00_AXI.CONFIG.WUSER_WIDTH 0
S00_AXI.CONFIG.RUSER_WIDTH 0
S00_AXI.CONFIG.BUSER_WIDTH 0
S00_AXI.CONFIG.READ_WRITE_MODE WRITE_ONLY
S00_AXI.CONFIG.HAS_BURST 1
S00_AXI.CONFIG.HAS_LOCK 0
S00_AXI.CONFIG.HAS_PROT 1
S00_AXI.CONFIG.HAS_CACHE 1
S00_AXI.CONFIG.HAS_QOS 0
S00_AXI.CONFIG.HAS_REGION 0
S00_AXI.CONFIG.HAS_WSTRB 1
S00_AXI.CONFIG.HAS_BRESP 1
S00_AXI.CONFIG.HAS_RRESP 0
S00_AXI.CONFIG.NUM_READ_OUTSTANDING 0
S00_AXI.CONFIG.NUM_WRITE_OUTSTANDING 8
S00_AXI.CONFIG.MAX_BURST_LENGTH 16
S00_AXI.CONFIG.PHASE 0.0
S00_AXI.CONFIG.CLK_DOMAIN system_sys_ps7_0_FCLK_CLK0
S00_AXI.CONFIG.NUM_READ_THREADS 1
S00_AXI.CONFIG.NUM_WRITE_THREADS 1
S00_AXI.CONFIG.RUSER_BITS_PER_BYTE 0
S00_AXI.CONFIG.WUSER_BITS_PER_BYTE 0
S00_AXI.CONFIG.INSERT_VIP 0
S01_AXI.CONFIG.SUPPORTS_NARROW_BURST 0
S01_AXI.CONFIG.DATA_WIDTH 64
S01_AXI.CONFIG.DATAWIDTH 64
S01_AXI.CONFIG.PROTOCOL AXI3
S01_AXI.CONFIG.FREQ_HZ 100000000
S01_AXI.CONFIG.ID_WIDTH 0
S01_AXI.CONFIG.ADDR_WIDTH 29
S01_AXI.CONFIG.AWUSER_WIDTH 0
S01_AXI.CONFIG.ARUSER_WIDTH 0
S01_AXI.CONFIG.WUSER_WIDTH 0
S01_AXI.CONFIG.RUSER_WIDTH 0
S01_AXI.CONFIG.BUSER_WIDTH 0
S01_AXI.CONFIG.READ_WRITE_MODE WRITE_ONLY
S01_AXI.CONFIG.HAS_BURST 1
S01_AXI.CONFIG.HAS_LOCK 0
S01_AXI.CONFIG.HAS_PROT 1
S01_AXI.CONFIG.HAS_CACHE 1
S01_AXI.CONFIG.HAS_QOS 0
S01_AXI.CONFIG.HAS_REGION 0
S01_AXI.CONFIG.HAS_WSTRB 1
S01_AXI.CONFIG.HAS_BRESP 1
S01_AXI.CONFIG.HAS_RRESP 0
S01_AXI.CONFIG.NUM_READ_OUTSTANDING 0
S01_AXI.CONFIG.NUM_WRITE_OUTSTANDING 8
S01_AXI.CONFIG.MAX_BURST_LENGTH 16
S01_AXI.CONFIG.PHASE 0.0
S01_AXI.CONFIG.CLK_DOMAIN system_sys_ps7_0_FCLK_CLK0
S01_AXI.CONFIG.NUM_READ_THREADS 1
S01_AXI.CONFIG.NUM_WRITE_THREADS 1
S01_AXI.CONFIG.RUSER_BITS_PER_BYTE 0
S01_AXI.CONFIG.WUSER_BITS_PER_BYTE 0
S01_AXI.CONFIG.INSERT_VIP 0
S02_AXI.CONFIG.SUPPORTS_NARROW_BURST 0
S02_AXI.CONFIG.DATA_WIDTH 64
S02_AXI.CONFIG.DATAWIDTH 64
S02_AXI.CONFIG.PROTOCOL AXI3
S02_AXI.CONFIG.FREQ_HZ 100000000
S02_AXI.CONFIG.ID_WIDTH 0
S02_AXI.CONFIG.ADDR_WIDTH 29
S02_AXI.CONFIG.AWUSER_WIDTH 0
S02_AXI.CONFIG.ARUSER_WIDTH 0
S02_AXI.CONFIG.WUSER_WIDTH 0
S02_AXI.CONFIG.RUSER_WIDTH 0
S02_AXI.CONFIG.BUSER_WIDTH 0
S02_AXI.CONFIG.READ_WRITE_MODE READ_ONLY
S02_AXI.CONFIG.HAS_BURST 1
S02_AXI.CONFIG.HAS_LOCK 0
S02_AXI.CONFIG.HAS_PROT 1
S02_AXI.CONFIG.HAS_CACHE 1
S02_AXI.CONFIG.HAS_QOS 0
S02_AXI.CONFIG.HAS_REGION 0
S02_AXI.CONFIG.HAS_WSTRB 0
S02_AXI.CONFIG.HAS_BRESP 0
S02_AXI.CONFIG.HAS_RRESP 1
S02_AXI.CONFIG.NUM_READ_OUTSTANDING 8
S02_AXI.CONFIG.NUM_WRITE_OUTSTANDING 0
S02_AXI.CONFIG.MAX_BURST_LENGTH 16
S02_AXI.CONFIG.PHASE 0.0
S02_AXI.CONFIG.CLK_DOMAIN system_sys_ps7_0_FCLK_CLK0
S02_AXI.CONFIG.NUM_READ_THREADS 1
S02_AXI.CONFIG.NUM_WRITE_THREADS 1
S02_AXI.CONFIG.RUSER_BITS_PER_BYTE 0
S02_AXI.CONFIG.WUSER_BITS_PER_BYTE 0
S02_AXI.CONFIG.INSERT_VIP 0
S03_AXI.CONFIG.SUPPORTS_NARROW_BURST 0
S03_AXI.CONFIG.DATA_WIDTH 64
S03_AXI.CONFIG.DATAWIDTH 64
S03_AXI.CONFIG.PROTOCOL AXI3
S03_AXI.CONFIG.FREQ_HZ 100000000
S03_AXI.CONFIG.ID_WIDTH 0
S03_AXI.CONFIG.ADDR_WIDTH 29
S03_AXI.CONFIG.AWUSER_WIDTH 0
S03_AXI.CONFIG.ARUSER_WIDTH 0
S03_AXI.CONFIG.WUSER_WIDTH 0
S03_AXI.CONFIG.RUSER_WIDTH 0
S03_AXI.CONFIG.BUSER_WIDTH 0
S03_AXI.CONFIG.READ_WRITE_MODE READ_ONLY
S03_AXI.CONFIG.HAS_BURST 1
S03_AXI.CONFIG.HAS_LOCK 0
S03_AXI.CONFIG.HAS_PROT 1
S03_AXI.CONFIG.HAS_CACHE 1
S03_AXI.CONFIG.HAS_QOS 0
S03_AXI.CONFIG.HAS_REGION 0
S03_AXI.CONFIG.HAS_WSTRB 0
S03_AXI.CONFIG.HAS_BRESP 0
S03_AXI.CONFIG.HAS_RRESP 1
S03_AXI.CONFIG.NUM_READ_OUTSTANDING 8
S03_AXI.CONFIG.NUM_WRITE_OUTSTANDING 0
S03_AXI.CONFIG.MAX_BURST_LENGTH 16
S03_AXI.CONFIG.PHASE 0.0
S03_AXI.CONFIG.CLK_DOMAIN system_sys_ps7_0_FCLK_CLK0
S03_AXI.CONFIG.NUM_READ_THREADS 1
S03_AXI.CONFIG.NUM_WRITE_THREADS 1
S03_AXI.CONFIG.RUSER_BITS_PER_BYTE 0
S03_AXI.CONFIG.WUSER_BITS_PER_BYTE 0
S03_AXI.CONFIG.INSERT_VIP 0
M00_AXI.CONFIG.NUM_WRITE_OUTSTANDING 8
M00_AXI.CONFIG.NUM_READ_OUTSTANDING 8
M00_AXI.CONFIG.DATA_WIDTH 64
M00_AXI.CONFIG.DATAWIDTH 64
M00_AXI.CONFIG.PROTOCOL AXI3
M00_AXI.CONFIG.FREQ_HZ 100000000
M00_AXI.CONFIG.ID_WIDTH 6
M00_AXI.CONFIG.ADDR_WIDTH 32
M00_AXI.CONFIG.AWUSER_WIDTH 0
M00_AXI.CONFIG.ARUSER_WIDTH 0
M00_AXI.CONFIG.WUSER_WIDTH 0
M00_AXI.CONFIG.RUSER_WIDTH 0
M00_AXI.CONFIG.BUSER_WIDTH 0
M00_AXI.CONFIG.READ_WRITE_MODE READ_WRITE
M00_AXI.CONFIG.HAS_BURST 1
M00_AXI.CONFIG.HAS_LOCK 1
M00_AXI.CONFIG.HAS_PROT 1
M00_AXI.CONFIG.HAS_CACHE 1
M00_AXI.CONFIG.HAS_QOS 1
M00_AXI.CONFIG.HAS_REGION 0
M00_AXI.CONFIG.HAS_WSTRB 1
M00_AXI.CONFIG.HAS_BRESP 1
M00_AXI.CONFIG.HAS_RRESP 1
M00_AXI.CONFIG.SUPPORTS_NARROW_BURST 0
M00_AXI.CONFIG.MAX_BURST_LENGTH 16
M00_AXI.CONFIG.PHASE 0.0
M00_AXI.CONFIG.CLK_DOMAIN system_sys_ps7_0_FCLK_CLK0
M00_AXI.CONFIG.NUM_READ_THREADS 1
M00_AXI.CONFIG.NUM_WRITE_THREADS 1
M00_AXI.CONFIG.RUSER_BITS_PER_BYTE 0
M00_AXI.CONFIG.WUSER_BITS_PER_BYTE 0
M00_AXI.CONFIG.INSERT_VIP 0
M00_AXI.IS_CASCADED 0
S00_AXI.IS_CASCADED 0
S01_AXI.IS_CASCADED 0
S02_AXI.IS_CASCADED 0
S03_AXI.IS_CASCADED 0
S00_AXI.NUM_SEG 1
S00_AXI.SEG000.BASE_ADDR 0x0000000000000000
S00_AXI.SEG000.SIZE 29
S00_AXI.SEG000.SUPPORTS_READ 1
S00_AXI.SEG000.SUPPORTS_WRITE 1
S00_AXI.SEG000.SECURE_READ 0
S00_AXI.SEG000.SECURE_WRITE 0
S00_AXI.SEG000.SEP_ROUTE 0b0000000000000000000000000000000000000000000000000000000000000000
S00_AXI.SEG000.PROTOCOL AXI3
S00_AXI.SEG000.DATA_WIDTH 64
S01_AXI.NUM_SEG 1
S01_AXI.SEG000.BASE_ADDR 0x0000000000000000
S01_AXI.SEG000.SIZE 29
S01_AXI.SEG000.SUPPORTS_READ 1
S01_AXI.SEG000.SUPPORTS_WRITE 1
S01_AXI.SEG000.SECURE_READ 0
S01_AXI.SEG000.SECURE_WRITE 0
S01_AXI.SEG000.SEP_ROUTE 0b0000000000000000000000000000000000000000000000000000000000000000
S01_AXI.SEG000.PROTOCOL AXI3
S01_AXI.SEG000.DATA_WIDTH 64
S02_AXI.NUM_SEG 1
S02_AXI.SEG000.BASE_ADDR 0x0000000000000000
S02_AXI.SEG000.SIZE 29
S02_AXI.SEG000.SUPPORTS_READ 1
S02_AXI.SEG000.SUPPORTS_WRITE 1
S02_AXI.SEG000.SECURE_READ 0
S02_AXI.SEG000.SECURE_WRITE 0
S02_AXI.SEG000.SEP_ROUTE 0b0000000000000000000000000000000000000000000000000000000000000000
S02_AXI.SEG000.PROTOCOL AXI3
S02_AXI.SEG000.DATA_WIDTH 64
S03_AXI.NUM_SEG 1
S03_AXI.SEG000.BASE_ADDR 0x0000000000000000
S03_AXI.SEG000.SIZE 29
S03_AXI.SEG000.SUPPORTS_READ 1
S03_AXI.SEG000.SUPPORTS_WRITE 1
S03_AXI.SEG000.SECURE_READ 0
S03_AXI.SEG000.SECURE_WRITE 0
S03_AXI.SEG000.SEP_ROUTE 0b0000000000000000000000000000000000000000000000000000000000000000
S03_AXI.SEG000.PROTOCOL AXI3
S03_AXI.SEG000.DATA_WIDTH 64
